<svg viewBox="0 0 12 60" fill="black" stroke="black" stroke-linecap="round" stroke-linejoin="round">
	<path transform="translate(6,6)" d="
		M 0,4 L 3,-1 A 4,4 180 0 1 -3,-1 Z
		"/>
	<path fill="none" transform="translate(6,18)" d="
		M 0,1 V 5
		M 0,-1 V -5
		M 1,0 H 5
		M -1,0 H -5
		M 0,-4 A 4,4 180 1 0 0,4 A 4,4 180 1 0 0,-4
		"/>
	<path transform="translate(6,30)" d="
		M 0,-1 A 1,1 180 1 0 0,1 A 1,1 180 1 0 0,-1
		"/>
	<path transform="translate(6,42)" d="
		M 0,-5 L 0.866025404,-0.5 4.330127019,2.5 0,1 -4.330127019,2.5 -0.866025404,-0.5 Z
		"/>
	<path transform="translate(6,54)" d="
		M 0,-5 L 1,-1 5,0 1,1 0,5 -1,1 -5,0 -1,-1 Z
		"/>
</svg>
