SplineFontDB: 3.0
FontName: Lycop
FullName: Lycop
FamilyName: Lycop
Weight: Regular
Copyright: 
Version: 001.000
ItalicAngle: 0
UnderlinePosition: 0
UnderlineWidth: 2
Ascent: 18
Descent: 4
InvalidEm: 0
LayerCount: 2
Layer: 0 0 "background" 1
Layer: 1 0 "foreground" 0
XUID: [1021 423 739876703 12790073]
FSType: 8
OS2Version: 0
OS2_WeightWidthSlopeOnly: 0
OS2_UseTypoMetrics: 0
CreationTime: 1426410948
ModificationTime: 1482434812
PfmFamily: 17
TTFWeight: 500
TTFWidth: 5
LineGap: 0
VLineGap: 0
OS2TypoAscent: 0
OS2TypoAOffset: 1
OS2TypoDescent: 0
OS2TypoDOffset: 1
OS2TypoLinegap: 0
OS2WinAscent: 0
OS2WinAOffset: 1
OS2WinDescent: 0
OS2WinDOffset: 1
HheadAscent: 0
HheadAOffset: 1
HheadDescent: 0
HheadDOffset: 1
OS2Vendor: 'PfEd'
Lookup: 258 0 0 "kern" { "kern" [3,0,4] } ['kern' ('DFLT' <'dflt' > 'latn' <'dflt' > ) ]
MarkAttachClasses: 1
DEI: 91125
KernClass2: 10 6 "kern"
 21 L Lacute Lcommaaccent
 632 a b c e g h k m n o p q s t u v w x y z uni00B5 agrave aacute acircumflex atilde adieresis aring ae ccedilla egrave eacute ecircumflex edieresis ntilde ograve oacute ocircumflex otilde odieresis oslash ugrave uacute ucircumflex udieresis yacute thorn ydieresis amacron abreve aogonek cdotaccent emacron ebreve edotaccent eogonek ecaron gcircumflex gbreve gdotaccent gcommaaccent hcircumflex dotlessi kcommaaccent kgreenlandic Ldot Lslash nacute ncommaaccent ncaron eng omacron obreve oe sacute scircumflex scedilla scaron tcommaaccent tbar utilde umacron ubreve uring uogonek wcircumflex ycircumflex zacute zdotaccent zcaron uni0237
 5 longs
 26 T Tcommaaccent Tcaron Tbar
 3 F P
 1 f
 30 Y Yacute Ycircumflex Ydieresis
 15 r rcommaaccent

 13 racute rcaron
 13 J Jcircumflex
 76 a agrave aacute acircumflex atilde adieresis aring ae amacron abreve aogonek
 537 c d e g m n o p q r s u v w x y z ccedilla egrave eacute ecircumflex edieresis ntilde ograve oacute ocircumflex otilde odieresis oslash ugrave uacute ucircumflex udieresis yacute ydieresis cacute cdotaccent emacron ebreve edotaccent eogonek ecaron gcircumflex gbreve gdotaccent gcommaaccent dotlessi kgreenlandic nacute ncommaaccent ncaron eng omacron obreve ohungarumlaut oe racute rcommaaccent sacute scircumflex scedilla scaron utilde umacron ubreve uring uhungarumlaut uogonek wcircumflex ycircumflex zacute zdotaccent zcaron uni0237
 26 T Tcommaaccent Tcaron Tbar
 30 Y Yacute Ycircumflex Ydieresis
 0 {} 0 {} 0 {} 0 {} 0 {} 0 {} 0 {} 0 {} 0 {} 0 {} -3 {} -3 {} 0 {} 0 {} 0 {} 0 {} -3 {} 0 {} 0 {} -4 {} -4 {} -4 {} 0 {} 0 {} 0 {} -3 {} -3 {} -3 {} 0 {} 0 {} 0 {} -6 {} -1 {} 0 {} 0 {} 0 {} 0 {} -4 {} -2 {} 0 {} 0 {} 0 {} 0 {} -3 {} -1 {} 0 {} 0 {} 0 {} 0 {} 0 {} -2 {} 0 {} -3 {} 0 {} 0 {} 0 {} -2 {} 0 {} 0 {} 0 {}
LangName: 1033
Encoding: UnicodeBmp
UnicodeInterp: none
NameList: Adobe Glyph List
DisplaySize: -24
AntiAlias: 1
FitToEm: 1
WinInfo: 0 32 16
BeginPrivate: 0
EndPrivate
TeXData: 1 0 0 346030 173015 115343 0 1048576 115343 783286 444596 497025 792723 393216 433062 380633 303038 157286 324010 404750 52429 2506097 1059062 262144
BeginChars: 65536 354

StartChar: A
Encoding: 65 65 0
Width: 8
VWidth: 0
Flags: HW
LayerCount: 2
Fore
SplineSet
0 0 m 25
 0 12 l 18
 0 13 1 14 2 14 c 10
 6 14 l 18
 7 14 8 13 8 12 c 10
 8 0 l 25
 6 0 l 25
 6 6 l 25
 2 6 l 25
 2 0 l 25
 0 0 l 25
2 8 m 25
 6 8 l 25
 6 12 l 25
 2 12 l 25
 2 8 l 25
EndSplineSet
EndChar

StartChar: B
Encoding: 66 66 1
Width: 8
VWidth: 0
Flags: HW
LayerCount: 2
Fore
SplineSet
0 0 m 25
 0 14 l 25
 5 14 l 18
 7 14 8 13 8 11 c 10
 8 9 l 18
 8 8 7 7 6 7 c 1
 7 7 8 6 8 5 c 10
 8 3 l 18
 8 1 7 0 5 0 c 10
 0 0 l 25
2 2 m 17
 4 2 l 2
 5 2 6 2 6 3 c 2
 6 5 l 2
 6 6 5 6 4 6 c 10
 2 6 l 25
 2 2 l 17
2 8 m 25
 4 8 l 18
 5 8 6 8 6 9 c 2
 6 11 l 2
 6 12 5 12 4 12 c 2
 2 12 l 9
 2 8 l 25
EndSplineSet
EndChar

StartChar: C
Encoding: 67 67 2
Width: 8
VWidth: 0
Flags: HW
LayerCount: 2
Fore
SplineSet
0 2 m 10
 0 12 l 18
 0 13 1 14 2 14 c 2
 6 14 l 2
 7 14 8 13 8 12 c 10
 8 10 l 17
 6 10 l 1
 6 12 l 1
 2 12 l 9
 2 2 l 17
 6 2 l 1
 6 4 l 1
 8 4 l 9
 8 2 l 18
 8 1 7 0 6 0 c 2
 2 0 l 2
 1 0 0 1 0 2 c 10
EndSplineSet
EndChar

StartChar: D
Encoding: 68 68 3
Width: 8
VWidth: 0
Flags: HW
LayerCount: 2
Fore
SplineSet
0 0 m 25
 0 14 l 25
 5 14 l 18
 7 14 8 13 8 11 c 10
 8 3 l 18
 8 1 7 0 5 0 c 10
 0 0 l 25
2 2 m 17
 4 2 l 2
 5 2 6 2 6 3 c 10
 6 11 l 18
 6 12 5 12 4 12 c 2
 2 12 l 9
 2 2 l 17
EndSplineSet
EndChar

StartChar: E
Encoding: 69 69 4
Width: 8
VWidth: 0
Flags: HW
LayerCount: 2
Fore
SplineSet
0 2 m 2
 0 12 l 2
 0 13 1 14 2 14 c 10
 8 14 l 25
 8 12 l 25
 2 12 l 25
 2 8 l 25
 6 8 l 25
 6 6 l 25
 2 6 l 25
 2 2 l 25
 8 2 l 25
 8 0 l 25
 2 0 l 18
 1 0 0 1 0 2 c 2
EndSplineSet
EndChar

StartChar: F
Encoding: 70 70 5
Width: 8
VWidth: 0
Flags: HW
LayerCount: 2
Fore
SplineSet
0 0 m 17
 0 12 l 2
 0 13 1 14 2 14 c 10
 8 14 l 25
 8 12 l 25
 2 12 l 25
 2 8 l 25
 6 8 l 25
 6 6 l 25
 2 6 l 25
 2 0 l 25
 0 0 l 17
EndSplineSet
EndChar

StartChar: G
Encoding: 71 71 6
Width: 8
VWidth: 0
Flags: HW
LayerCount: 2
Fore
SplineSet
0 2 m 10
 0 12 l 18
 0 13 1 14 2 14 c 10
 6 14 l 18
 7 14 8 13 8 12 c 10
 8 10 l 25
 6 10 l 25
 6 12 l 25
 2 12 l 25
 2 2 l 25
 6 2 l 25
 6 6 l 25
 4 6 l 25
 4 8 l 25
 8 8 l 17
 8 2 l 2
 8 1 7 0 6 0 c 10
 2 0 l 18
 1 0 0 1 0 2 c 10
EndSplineSet
EndChar

StartChar: H
Encoding: 72 72 7
Width: 8
VWidth: 0
Flags: HW
LayerCount: 2
Fore
SplineSet
0 0 m 25
 0 14 l 25
 2 14 l 25
 2 8 l 25
 6 8 l 25
 6 14 l 25
 8 14 l 25
 8 0 l 25
 6 0 l 25
 6 6 l 25
 2 6 l 25
 2 0 l 25
 0 0 l 25
EndSplineSet
EndChar

StartChar: I
Encoding: 73 73 8
Width: 2
VWidth: 0
Flags: HW
LayerCount: 2
Fore
SplineSet
0 0 m 25
 0 14 l 25
 2 14 l 25
 2 0 l 25
 0 0 l 25
EndSplineSet
EndChar

StartChar: J
Encoding: 74 74 9
Width: 8
VWidth: 0
Flags: HW
LayerCount: 2
Fore
SplineSet
0 2 m 10
 0 4 l 25
 2 4 l 25
 2 2 l 25
 6 2 l 25
 6 14 l 25
 8 14 l 25
 8 2 l 18
 8 1 7 0 6 0 c 10
 2 0 l 18
 1 0 0 1 0 2 c 10
EndSplineSet
EndChar

StartChar: K
Encoding: 75 75 10
Width: 8
VWidth: 0
Flags: HW
LayerCount: 2
Fore
SplineSet
0 0 m 25
 0 14 l 25
 2 14 l 17
 2 8 l 1
 4 8 6 8 6 10 c 10
 6 14 l 25
 8 14 l 25
 8 10 l 18
 8 8 7 7 5 7 c 1
 7 7 8 6 8 4 c 10
 8 0 l 25
 6 0 l 25
 6 4 l 18
 6 6 4 6 2 6 c 1
 2 0 l 9
 0 0 l 25
EndSplineSet
EndChar

StartChar: L
Encoding: 76 76 11
Width: 6
VWidth: 0
Flags: HW
LayerCount: 2
Fore
SplineSet
0 0 m 25
 0 14 l 25
 2 14 l 25
 2 2 l 25
 6 2 l 25
 6 0 l 25
 0 0 l 25
EndSplineSet
EndChar

StartChar: M
Encoding: 77 77 12
Width: 12
VWidth: 0
Flags: HW
LayerCount: 2
Fore
SplineSet
0 0 m 25
 0 14 l 25
 10 14 l 18
 11 14 12 13 12 12 c 10
 12 0 l 25
 10 0 l 25
 10 12 l 25
 7 12 l 25
 7 0 l 25
 5 0 l 25
 5 12 l 25
 2 12 l 25
 2 0 l 25
 0 0 l 25
EndSplineSet
EndChar

StartChar: N
Encoding: 78 78 13
Width: 8
VWidth: 0
Flags: HW
LayerCount: 2
Fore
SplineSet
0 0 m 25
 0 14 l 17
 6 14 l 2
 7 14 8 13 8 12 c 10
 8 0 l 25
 6 0 l 25
 6 12 l 25
 2 12 l 25
 2 0 l 25
 0 0 l 25
EndSplineSet
EndChar

StartChar: O
Encoding: 79 79 14
Width: 8
VWidth: 0
Flags: HW
LayerCount: 2
Fore
SplineSet
0 2 m 10
 0 12 l 18
 0 13 1 14 2 14 c 10
 6 14 l 18
 7 14 8 13 8 12 c 10
 8 2 l 18
 8 1 7 0 6 0 c 10
 2 0 l 18
 1 0 0 1 0 2 c 10
2 2 m 25
 6 2 l 25
 6 12 l 25
 2 12 l 25
 2 2 l 25
EndSplineSet
EndChar

StartChar: P
Encoding: 80 80 15
Width: 8
VWidth: 0
Flags: HW
LayerCount: 2
Fore
SplineSet
0 0 m 17
 0 14 l 17
 6 14 l 2
 7 14 8 13 8 12 c 10
 8 8 l 18
 8 7 7 6 6 6 c 10
 2 6 l 25
 2 0 l 25
 0 0 l 17
2 8 m 25
 6 8 l 25
 6 12 l 25
 2 12 l 25
 2 8 l 25
EndSplineSet
EndChar

StartChar: Q
Encoding: 81 81 16
Width: 8
VWidth: 0
Flags: HW
LayerCount: 2
Fore
Refer: 309 808 N 1 0 0 1 0 0 2
Refer: 14 79 N 1 0 0 1 0 0 2
EndChar

StartChar: R
Encoding: 82 82 17
Width: 8
VWidth: 0
Flags: HW
LayerCount: 2
Fore
SplineSet
0 0 m 25
 0 14 l 25
 5 14 l 18
 7 14 8 13 8 11 c 10
 8 9 l 18
 8 8 7 7 6 7 c 2
 5 7 l 2
 7 7 8 6 8 4 c 10
 8 0 l 25
 6 0 l 17
 6 4 l 2
 6 6 4 6 2 6 c 9
 2 4 2 2 2 0 c 25
 0 0 l 25
2 8 m 17
 4 8 l 18
 5 8 6 8 6 9 c 10
 6 11 l 18
 6 12 5 12 4 12 c 2
 2 12 l 9
 2 8 l 17
EndSplineSet
EndChar

StartChar: S
Encoding: 83 83 18
Width: 8
VWidth: 0
Flags: HW
LayerCount: 2
Fore
SplineSet
0 2 m 2
 0 4 l 1
 2 4 l 1
 2 2 l 1
 6 2 l 9
 6 6 l 25
 2 6 l 18
 1 6 0 7 0 8 c 10
 0 12 l 18
 0 13 1 14 2 14 c 2
 6 14 l 2
 7 14 8 13 8 12 c 10
 8 10 l 17
 6 10 l 1
 6 12 l 1
 2 12 l 9
 2 8 l 25
 6 8 l 18
 7 8 8 7 8 6 c 10
 8 2 l 18
 8 1 7 0 6 0 c 10
 2 0 l 18
 1 0 0 1 0 2 c 2
EndSplineSet
EndChar

StartChar: T
Encoding: 84 84 19
Width: 8
VWidth: 0
Flags: HW
LayerCount: 2
Fore
SplineSet
0 12 m 25
 0 14 l 25
 8 14 l 25
 8 12 l 25
 5 12 l 25
 5 0 l 25
 3 0 l 25
 3 12 l 25
 0 12 l 25
EndSplineSet
EndChar

StartChar: U
Encoding: 85 85 20
Width: 8
VWidth: 0
Flags: HW
LayerCount: 2
Fore
SplineSet
0 2 m 10
 0 14 l 25
 2 14 l 25
 2 2 l 25
 6 2 l 25
 6 14 l 25
 8 14 l 25
 8 0 l 25
 2 0 l 18
 1 0 0 1 0 2 c 10
EndSplineSet
EndChar

StartChar: V
Encoding: 86 86 21
Width: 8
VWidth: 0
Flags: HW
LayerCount: 2
Fore
SplineSet
3 0 m 9
 0 14 l 17
 2 14 l 1
 4 4 l 17
 6 14 l 1
 8 14 l 1
 5 0 l 1
 3 0 l 9
EndSplineSet
EndChar

StartChar: W
Encoding: 87 87 22
Width: 12
VWidth: 0
Flags: HW
LayerCount: 2
Fore
SplineSet
0 2 m 10
 0 14 l 17
 2 14 l 1
 2 2 l 25
 5 2 l 25
 5 14 l 17
 7 14 l 9
 7 2 l 25
 10 2 l 25
 10 14 l 17
 12 14 l 9
 12 2 l 18
 12 1 11 0 10 0 c 10
 2 0 l 18
 1 0 0 1 0 2 c 10
EndSplineSet
EndChar

StartChar: X
Encoding: 88 88 23
Width: 8
VWidth: 0
Flags: HW
LayerCount: 2
Fore
SplineSet
0 0 m 17
 0 4 l 2
 0 6 1 7 3 7 c 1
 1 7 0 8 0 10 c 2
 0 14 l 9
 2 14 l 17
 2 10 l 2
 2 8 3 8 4 8 c 0
 5 8 6 8 6 10 c 2
 6 14 l 9
 8 14 l 17
 8 10 l 2
 8 8 7 7 5 7 c 1
 7 7 8 6 8 4 c 2
 8 0 l 9
 6 0 l 17
 6 4 l 2
 6 6 5 6 4 6 c 0
 3 6 2 6 2 4 c 2
 2 0 l 9
 0 0 l 17
EndSplineSet
EndChar

StartChar: Y
Encoding: 89 89 24
Width: 8
VWidth: 0
Flags: HW
LayerCount: 2
Fore
SplineSet
0 9 m 2
 0 14 l 9
 2 14 l 17
 2 9 l 2
 2 8 3 8 4 8 c 0
 5 8 6 8 6 9 c 10
 6 14 l 25
 8 14 l 17
 8 9 l 2
 8 8 7 7 6 7 c 2
 5 7 l 9
 5 0 l 25
 3 0 l 25
 3 7 l 17
 2 7 l 2
 1 7 0 8 0 9 c 2
EndSplineSet
EndChar

StartChar: Z
Encoding: 90 90 25
Width: 8
VWidth: 0
Flags: HW
LayerCount: 2
Fore
SplineSet
0 0 m 25
 0 6 l 18
 0 7 1 8 2 8 c 2
 6 8 l 1
 6 12 l 9
 0 12 l 25
 0 14 l 25
 8 14 l 25
 8 8 l 18
 8 7 7 6 6 6 c 2
 2 6 l 1
 2 2 l 9
 8 2 l 25
 8 0 l 25
 0 0 l 25
EndSplineSet
EndChar

StartChar: a
Encoding: 97 97 26
Width: 8
VWidth: 0
Flags: HW
LayerCount: 2
Fore
SplineSet
0 2 m 10
 0 4 l 18
 0 5 1 6 2 6 c 10
 6 6 l 25
 6 8 l 25
 2 8 l 17
 2 10 l 9
 6 10 l 18
 7 10 8 9 8 8 c 10
 8 0 l 25
 2 0 l 18
 1 0 0 1 0 2 c 10
2 2 m 25
 6 2 l 25
 6 4 l 25
 2 4 l 25
 2 2 l 25
EndSplineSet
EndChar

StartChar: b
Encoding: 98 98 27
Width: 8
VWidth: 0
Flags: HW
LayerCount: 2
Fore
SplineSet
0 0 m 25
 0 14 l 25
 2 14 l 25
 2 10 l 25
 6 10 l 18
 7 10 8 9 8 8 c 10
 8 2 l 18
 8 1 7 0 6 0 c 10
 0 0 l 25
2 2 m 25
 6 2 l 25
 6 8 l 25
 2 8 l 25
 2 2 l 25
EndSplineSet
EndChar

StartChar: c
Encoding: 99 99 28
Width: 6
VWidth: 0
Flags: HW
LayerCount: 2
Fore
SplineSet
0 2 m 10
 0 8 l 18
 0 9 1 10 2 10 c 10
 6 10 l 25
 6 8 l 25
 2 8 l 25
 2 2 l 25
 6 2 l 25
 6 0 l 25
 2 0 l 18
 1 0 0 1 0 2 c 10
EndSplineSet
EndChar

StartChar: d
Encoding: 100 100 29
Width: 8
VWidth: 0
Flags: HW
LayerCount: 2
Fore
Refer: 27 98 N -1 0 0 1 8 0 2
EndChar

StartChar: e
Encoding: 101 101 30
Width: 8
VWidth: 0
Flags: HW
LayerCount: 2
Fore
SplineSet
0 2 m 10
 0 8 l 18
 0 9 1 10 2 10 c 10
 6 10 l 18
 7 10 8 9 8 8 c 2
 8 6 l 2
 8 5 7 4 6 4 c 10
 2 4 l 25
 2 2 l 25
 6 2 l 17
 6 0 l 9
 2 0 l 18
 1 0 0 1 0 2 c 10
2 6 m 25
 6 6 l 25
 6 8 l 25
 2 8 l 25
 2 6 l 25
EndSplineSet
EndChar

StartChar: f
Encoding: 102 102 31
Width: 6
VWidth: 0
Flags: HW
LayerCount: 2
Fore
SplineSet
0 0 m 25
 0 12 l 18
 0 13 1 14 2 14 c 10
 6 14 l 25
 6 12 l 25
 2 12 l 25
 2 10 l 25
 6 10 l 25
 6 8 l 25
 2 8 l 25
 2 0 l 25
 0 0 l 25
EndSplineSet
EndChar

StartChar: g
Encoding: 103 103 32
Width: 8
VWidth: 0
Flags: HW
LayerCount: 2
Fore
SplineSet
0 2 m 10
 0 8 l 18
 0 9 1 10 2 10 c 10
 8 10 l 25
 8 -2 l 18
 8 -3 7 -4 6 -4 c 10
 2 -4 l 25
 2 -2 l 25
 6 -2 l 25
 6 0 l 25
 2 0 l 18
 1 0 0 1 0 2 c 10
2 2 m 25
 6 2 l 25
 6 8 l 25
 2 8 l 25
 2 2 l 25
EndSplineSet
EndChar

StartChar: h
Encoding: 104 104 33
Width: 8
VWidth: 0
Flags: HW
LayerCount: 2
Fore
SplineSet
0 0 m 25
 0 14 l 25
 2 14 l 25
 2 10 l 25
 6 10 l 18
 7 10 8 9 8 8 c 10
 8 0 l 25
 6 0 l 25
 6 8 l 25
 2 8 l 25
 2 0 l 25
 0 0 l 25
EndSplineSet
EndChar

StartChar: i
Encoding: 105 105 34
Width: 2
VWidth: 0
Flags: HW
LayerCount: 2
Fore
Refer: 155 775 N 1 0 0 1 -3 0 2
Refer: 154 305 N 1 0 0 1 0 0 2
EndChar

StartChar: j
Encoding: 106 106 35
Width: 2
VWidth: 0
Flags: HW
LayerCount: 2
Fore
Refer: 155 775 N 1 0 0 1 -3 0 2
Refer: 192 567 N 1 0 0 1 0 0 2
EndChar

StartChar: k
Encoding: 107 107 36
Width: 8
VWidth: 0
Flags: HW
LayerCount: 2
Fore
SplineSet
0 0 m 25
 0 14 l 25
 2 14 l 25
 2 6 l 17
 4 6 l 2
 5 6 6 6 6 7 c 2
 6 10 l 9
 8 10 l 17
 8 7 l 2
 8 6 7 5 6 5 c 1
 7 5 8 4 8 3 c 2
 8 0 l 9
 6 0 l 17
 6 3 l 2
 6 4 5 4 4 4 c 2
 2 4 l 9
 2 0 l 25
 0 0 l 25
EndSplineSet
EndChar

StartChar: l
Encoding: 108 108 37
Width: 2
VWidth: 0
Flags: HW
LayerCount: 2
Fore
Refer: 8 73 N 1 0 0 1 0 0 2
EndChar

StartChar: m
Encoding: 109 109 38
Width: 12
VWidth: 0
Flags: HW
LayerCount: 2
Fore
SplineSet
0 0 m 25
 0 10 l 25
 10 10 l 18
 11 10 12 9 12 8 c 10
 12 0 l 25
 10 0 l 25
 10 8 l 25
 7 8 l 25
 7 0 l 25
 5 0 l 25
 5 8 l 25
 2 8 l 25
 2 0 l 25
 0 0 l 25
EndSplineSet
EndChar

StartChar: n
Encoding: 110 110 39
Width: 8
VWidth: 0
Flags: HW
LayerCount: 2
Fore
SplineSet
0 0 m 25
 0 10 l 25
 6 10 l 18
 7 10 8 9 8 8 c 10
 8 0 l 25
 6 0 l 25
 6 8 l 25
 2 8 l 25
 2 0 l 25
 0 0 l 25
EndSplineSet
EndChar

StartChar: o
Encoding: 111 111 40
Width: 8
VWidth: 0
Flags: HW
LayerCount: 2
Fore
SplineSet
0 2 m 10
 0 8 l 18
 0 9 1 10 2 10 c 10
 6 10 l 18
 7 10 8 9 8 8 c 10
 8 2 l 18
 8 1 7 0 6 0 c 10
 2 0 l 18
 1 0 0 1 0 2 c 10
2 2 m 25
 6 2 l 25
 6 8 l 25
 2 8 l 25
 2 2 l 25
EndSplineSet
EndChar

StartChar: p
Encoding: 112 112 41
Width: 8
VWidth: 0
Flags: HW
LayerCount: 2
Fore
Refer: 27 98 N 1 0 0 -1 0 10 2
EndChar

StartChar: q
Encoding: 113 113 42
Width: 8
VWidth: 0
Flags: HW
LayerCount: 2
Fore
Refer: 27 98 N -1 0 0 -1 8 10 2
EndChar

StartChar: r
Encoding: 114 114 43
Width: 6
VWidth: 0
Flags: HW
LayerCount: 2
Fore
SplineSet
0 0 m 25
 0 8 l 18
 0 9 1 10 2 10 c 10
 6 10 l 25
 6 8 l 25
 2 8 l 25
 2 0 l 25
 0 0 l 25
EndSplineSet
EndChar

StartChar: s
Encoding: 115 115 44
Width: 8
VWidth: 0
Flags: HW
LayerCount: 2
Fore
SplineSet
0 0 m 25
 0 2 l 25
 6 2 l 25
 6 4 l 25
 2 4 l 18
 1 4 0 5 0 6 c 10
 0 8 l 18
 0 9 1 10 2 10 c 10
 8 10 l 25
 8 8 l 25
 2 8 l 25
 2 6 l 25
 6 6 l 18
 7 6 8 5 8 4 c 10
 8 2 l 18
 8 1 7 0 6 0 c 10
 0 0 l 25
EndSplineSet
EndChar

StartChar: t
Encoding: 116 116 45
Width: 6
VWidth: 0
Flags: HW
LayerCount: 2
Fore
SplineSet
0 2 m 10
 0 14 l 25
 2 14 l 25
 2 10 l 25
 6 10 l 25
 6 8 l 25
 2 8 l 25
 2 2 l 25
 6 2 l 25
 6 0 l 25
 2 0 l 18
 1 0 0 1 0 2 c 10
EndSplineSet
EndChar

StartChar: u
Encoding: 117 117 46
Width: 8
VWidth: 0
Flags: HW
LayerCount: 2
Fore
SplineSet
0 2 m 10
 0 10 l 25
 2 10 l 25
 2 2 l 25
 6 2 l 25
 6 10 l 25
 8 10 l 25
 8 0 l 25
 2 0 l 18
 1 0 0 1 0 2 c 10
EndSplineSet
EndChar

StartChar: v
Encoding: 118 118 47
Width: 8
VWidth: 0
Flags: HW
LayerCount: 2
Fore
SplineSet
3 0 m 9
 0 10 l 17
 2 10 l 1
 4 3 l 17
 6 10 l 1
 8 10 l 1
 5 0 l 1
 3 0 l 9
EndSplineSet
EndChar

StartChar: w
Encoding: 119 119 48
Width: 12
VWidth: 0
Flags: HW
LayerCount: 2
Fore
SplineSet
0 2 m 10
 0 10 l 17
 2 10 l 1
 2 2 l 25
 5 2 l 25
 5 10 l 17
 7 10 l 9
 7 2 l 25
 10 2 l 25
 10 10 l 17
 12 10 l 9
 12 2 l 18
 12 1 11 0 10 0 c 10
 2 0 l 18
 1 0 0 1 0 2 c 10
EndSplineSet
EndChar

StartChar: x
Encoding: 120 120 49
Width: 8
VWidth: 0
Flags: HW
LayerCount: 2
Fore
SplineSet
0 0 m 25
 0 3 l 18
 0 4 1 5 2 5 c 1
 1 5 0 6 0 7 c 10
 0 10 l 25
 2 10 l 25
 2 7 l 18
 2 6 3 6 4 6 c 0
 5 6 6 6 6 7 c 10
 6 10 l 25
 8 10 l 25
 8 7 l 18
 8 6 7 5 6 5 c 1
 7 5 8 4 8 3 c 10
 8 0 l 25
 6 0 l 25
 6 3 l 18
 6 4 5 4 4 4 c 0
 3 4 2 4 2 3 c 10
 2 0 l 25
 0 0 l 25
EndSplineSet
EndChar

StartChar: y
Encoding: 121 121 50
Width: 8
VWidth: 0
Flags: HW
LayerCount: 2
Fore
SplineSet
0 2 m 10
 0 10 l 25
 2 10 l 25
 2 2 l 25
 6 2 l 25
 6 10 l 25
 8 10 l 25
 8 -2 l 18
 8 -3 7 -4 6 -4 c 10
 2 -4 l 25
 2 -2 l 25
 6 -2 l 25
 6 0 l 25
 2 0 l 18
 1 0 0 1 0 2 c 10
EndSplineSet
EndChar

StartChar: z
Encoding: 122 122 51
Width: 8
VWidth: 0
Flags: HW
LayerCount: 2
Fore
SplineSet
0 0 m 25
 0 4 l 18
 0 5 1 6 2 6 c 2
 6 6 l 1
 6 8 l 9
 0 8 l 25
 0 10 l 25
 8 10 l 25
 8 6 l 18
 8 5 7 4 6 4 c 2
 2 4 l 1
 2 2 l 9
 8 2 l 25
 8 0 l 25
 0 0 l 25
EndSplineSet
EndChar

StartChar: zero
Encoding: 48 48 52
Width: 8
VWidth: 0
Flags: HW
LayerCount: 2
Fore
Refer: 14 79 N 1 0 0 1 0 0 2
EndChar

StartChar: one
Encoding: 49 49 53
Width: 4
VWidth: 0
Flags: HW
LayerCount: 2
Fore
SplineSet
0 12 m 25
 0 14 l 25
 2 14 l 18
 3 14 4 13 4 12 c 10
 4 0 l 25
 2 0 l 25
 2 12 l 25
 0 12 l 25
EndSplineSet
EndChar

StartChar: two
Encoding: 50 50 54
Width: 8
VWidth: 0
Flags: HW
LayerCount: 2
Fore
SplineSet
0 0 m 25
 0 6 l 18
 0 7 1 8 2 8 c 2
 6 8 l 9
 6 12 l 25
 2 12 l 25
 2 10 l 25
 0 10 l 25
 0 12 l 18
 0 13 1 14 2 14 c 10
 6 14 l 18
 7 14 8 13 8 12 c 10
 8 8 l 18
 8 7 7 6 6 6 c 2
 2 6 l 1
 2 2 l 1
 8 2 l 9
 8 0 l 25
 0 0 l 25
EndSplineSet
EndChar

StartChar: three
Encoding: 51 51 55
Width: 8
VWidth: 0
Flags: HW
LayerCount: 2
Fore
SplineSet
0 2 m 10
 0 4 l 25
 2 4 l 25
 2 3 l 18
 2 2 3 2 4 2 c 0
 5 2 6 2 6 3 c 10
 6 5 l 18
 6 6 5 6 4 6 c 9
 4 8 l 17
 5 8 6 8 6 9 c 10
 6 11 l 18
 6 12 5 12 4 12 c 0
 3 12 2 12 2 11 c 10
 2 10 l 25
 0 10 l 25
 0 12 l 18
 0 13 1 14 2 14 c 10
 6 14 l 18
 7 14 8 13 8 12 c 10
 8 9 l 18
 8 8 7 7 6 7 c 1
 7 7 8 6 8 5 c 10
 8 2 l 18
 8 1 7 0 6 0 c 10
 2 0 l 18
 1 0 0 1 0 2 c 10
EndSplineSet
EndChar

StartChar: four
Encoding: 52 52 56
Width: 8
VWidth: 0
Flags: HW
LayerCount: 2
Fore
SplineSet
0 8 m 2
 0 14 l 9
 2 14 l 25
 2 8 l 25
 6 8 l 25
 6 14 l 25
 8 14 l 25
 8 0 l 25
 6 0 l 25
 6 6 l 25
 2 6 l 18
 1 6 0 7 0 8 c 2
EndSplineSet
EndChar

StartChar: five
Encoding: 53 53 57
Width: 8
VWidth: 0
Flags: HW
LayerCount: 2
Fore
SplineSet
0 2 m 10
 0 4 l 25
 2 4 l 25
 2 2 l 25
 6 2 l 25
 6 6 l 25
 0 6 l 25
 0 14 l 25
 8 14 l 25
 8 12 l 25
 2 12 l 25
 2 8 l 25
 6 8 l 18
 7 8 8 7 8 6 c 10
 8 2 l 18
 8 1 7 0 6 0 c 10
 2 0 l 18
 1 0 0 1 0 2 c 10
EndSplineSet
EndChar

StartChar: six
Encoding: 54 54 58
Width: 8
VWidth: 0
Flags: HW
LayerCount: 2
Fore
SplineSet
0 2 m 10
 0 12 l 18
 0 13 1 14 2 14 c 10
 6 14 l 18
 7 14 8 13 8 12 c 10
 8 10 l 25
 6 10 l 25
 6 12 l 25
 2 12 l 25
 2 8 l 25
 6 8 l 18
 7 8 8 7 8 6 c 10
 8 2 l 18
 8 1 7 0 6 0 c 10
 2 0 l 18
 1 0 0 1 0 2 c 10
2 2 m 25
 6 2 l 25
 6 6 l 25
 2 6 l 25
 2 2 l 25
EndSplineSet
EndChar

StartChar: seven
Encoding: 55 55 59
Width: 8
VWidth: 0
Flags: HW
LayerCount: 2
Fore
SplineSet
0 12 m 25
 0 14 l 25
 8 14 l 17
 8 8 l 2
 8 7 7 6 6 6 c 2
 4 6 l 1
 4 0 l 9
 2 0 l 17
 2 6 l 2
 2 7 3 8 4 8 c 2
 6 8 l 1
 6 12 l 9
 0 12 l 25
EndSplineSet
EndChar

StartChar: eight
Encoding: 56 56 60
Width: 8
VWidth: 0
Flags: HW
LayerCount: 2
Fore
SplineSet
0 2 m 10
 0 5 l 18
 0 6 1 7 2 7 c 1
 1 7 0 8 0 9 c 10
 0 12 l 18
 0 13 1 14 2 14 c 10
 6 14 l 18
 7 14 8 13 8 12 c 10
 8 9 l 18
 8 8 7 7 6 7 c 1
 7 7 8 6 8 5 c 10
 8 2 l 18
 8 1 7 0 6 0 c 10
 2 0 l 18
 1 0 0 1 0 2 c 10
2 3 m 18
 2 2 3 2 4 2 c 0
 5 2 6 2 6 3 c 10
 6 5 l 18
 6 6 5 6 4 6 c 0
 3 6 2 6 2 5 c 10
 2 3 l 18
2 9 m 18
 2 8 3 8 4 8 c 0
 5 8 6 8 6 9 c 10
 6 11 l 18
 6 12 5 12 4 12 c 0
 3 12 2 12 2 11 c 10
 2 9 l 18
EndSplineSet
EndChar

StartChar: nine
Encoding: 57 57 61
Width: 8
VWidth: 0
Flags: HW
LayerCount: 2
Fore
Refer: 58 54 N -1 0 0 -1 8 14 2
EndChar

StartChar: uni0000
Encoding: 0 0 62
Width: 0
VWidth: 0
Flags: HW
LayerCount: 2
EndChar

StartChar: exclam
Encoding: 33 33 63
Width: 2
VWidth: 0
Flags: HW
LayerCount: 2
Fore
SplineSet
0 0 m 25
 0 2 l 25
 2 2 l 25
 2 0 l 25
 0 0 l 25
0 4 m 25
 0 14 l 25
 2 14 l 25
 2 4 l 25
 0 4 l 25
EndSplineSet
EndChar

StartChar: quoteright
Encoding: 8217 8217 64
Width: 2
VWidth: 0
Flags: HW
LayerCount: 2
Fore
SplineSet
0 8 m 9
 0 14 l 25
 2 14 l 25
 2 10 l 18
 2 9 1 8 0 8 c 9
EndSplineSet
EndChar

StartChar: quoteleft
Encoding: 8216 8216 65
Width: 2
VWidth: 0
Flags: HW
LayerCount: 2
Fore
Refer: 64 8217 N -1 0 0 -1 2 22 2
EndChar

StartChar: quotereversed
Encoding: 8219 8219 66
Width: 2
VWidth: 0
Flags: HW
LayerCount: 2
Fore
Refer: 64 8217 N -1 0 0 1 2 0 2
EndChar

StartChar: quotedblright
Encoding: 8221 8221 67
Width: 6
VWidth: 0
Flags: HW
LayerCount: 2
Fore
Refer: 64 8217 N 1 0 0 1 4 0 2
Refer: 64 8217 N 1 0 0 1 0 0 2
EndChar

StartChar: quotedblleft
Encoding: 8220 8220 68
Width: 6
VWidth: 0
Flags: HW
LayerCount: 2
Fore
Refer: 65 8216 N 1 0 0 1 4 0 2
Refer: 65 8216 N 1 0 0 1 0 0 2
EndChar

StartChar: uni201F
Encoding: 8223 8223 69
Width: 6
VWidth: 0
Flags: HW
LayerCount: 2
Fore
Refer: 66 8219 N 1 0 0 1 4 0 2
Refer: 66 8219 N 1 0 0 1 0 0 2
EndChar

StartChar: quotesingle
Encoding: 39 39 70
Width: 2
VWidth: 0
Flags: HW
LayerCount: 2
Fore
Refer: 64 8217 N 1 0 0 1 0 0 2
EndChar

StartChar: comma
Encoding: 44 44 71
Width: 2
VWidth: 0
Flags: HW
LayerCount: 2
Fore
SplineSet
-1 -2 m 1
 -1 -2 0 -2 0 -1 c 10
 0 2 l 9
 2 2 l 25
 2 -1 l 18
 2 -3 1 -4 -1 -4 c 1
 -1 -2 l 1
EndSplineSet
EndChar

StartChar: quotesinglbase
Encoding: 8218 8218 72
Width: 2
VWidth: 0
Flags: HW
LayerCount: 2
Fore
Refer: 64 8217 N 1 0 0 1 0 -10 2
EndChar

StartChar: quotedbl
Encoding: 34 34 73
Width: 6
VWidth: 0
Flags: HW
LayerCount: 2
Fore
Refer: 67 8221 N 1 0 0 1 0 0 2
EndChar

StartChar: dollar
Encoding: 36 36 74
Width: 8
VWidth: 0
Flags: HW
LayerCount: 2
Fore
Refer: 75 124 N 1 0 0 1 3 0 2
Refer: 18 83 N 1 0 0 1 0 0 2
EndChar

StartChar: bar
Encoding: 124 124 75
Width: 2
VWidth: 0
Flags: HW
LayerCount: 2
Fore
SplineSet
0 -2 m 25
 0 16 l 25
 2 16 l 25
 2 -2 l 25
 0 -2 l 25
EndSplineSet
EndChar

StartChar: parenleft
Encoding: 40 40 76
Width: 4
VWidth: 0
Flags: HW
LayerCount: 2
Fore
SplineSet
0 1 m 10
 0 13 l 18
 0 15 1 16 3 16 c 10
 4 16 l 25
 4 14 l 25
 3 14 l 18
 2 14 2 13 2 12 c 2
 2 2 l 2
 2 1 2 0 3 0 c 10
 4 0 l 25
 4 -2 l 25
 3 -2 l 18
 1 -2 0 -1 0 1 c 10
EndSplineSet
EndChar

StartChar: parenright
Encoding: 41 41 77
Width: 4
VWidth: 0
Flags: HW
LayerCount: 2
Fore
Refer: 76 40 N -1 0 0 1 4 0 2
EndChar

StartChar: bracketleft
Encoding: 91 91 78
Width: 4
VWidth: 0
Flags: HW
LayerCount: 2
Fore
SplineSet
0 -2 m 25
 0 16 l 25
 4 16 l 25
 4 14 l 25
 2 14 l 25
 2 0 l 25
 4 0 l 25
 4 -2 l 25
 0 -2 l 25
EndSplineSet
EndChar

StartChar: bracketright
Encoding: 93 93 79
Width: 4
VWidth: 0
Flags: HW
LayerCount: 2
Fore
Refer: 78 91 N -1 0 0 1 4 0 2
EndChar

StartChar: braceleft
Encoding: 123 123 80
Width: 6
VWidth: 0
Flags: HW
LayerCount: 2
Fore
SplineSet
0 7 m 1
 1 7 2 8 2 9 c 10
 2 13 l 18
 2 15 3 16 5 16 c 10
 6 16 l 25
 6 14 l 25
 5 14 l 18
 4 14 4 13 4 12 c 2
 4 9 l 2
 4 8 3 7 2 7 c 1
 3 7 4 6 4 5 c 2
 4 2 l 2
 4 1 4 0 5 0 c 10
 6 0 l 25
 6 -2 l 25
 5 -2 l 18
 3 -2 2 -1 2 1 c 10
 2 5 l 18
 2 6 1 7 0 7 c 1
EndSplineSet
EndChar

StartChar: braceright
Encoding: 125 125 81
Width: 6
VWidth: 0
Flags: HW
LayerCount: 2
Fore
Refer: 80 123 N -1 0 0 1 6 0 2
EndChar

StartChar: colon
Encoding: 58 58 82
Width: 2
VWidth: 0
Flags: HW
LayerCount: 2
Fore
SplineSet
0 0 m 25
 0 2 l 25
 2 2 l 25
 2 0 l 25
 0 0 l 25
0 8 m 25
 0 10 l 25
 2 10 l 25
 2 8 l 25
 0 8 l 25
EndSplineSet
EndChar

StartChar: semicolon
Encoding: 59 59 83
Width: 2
VWidth: 0
Flags: HW
LayerCount: 2
Fore
SplineSet
0 8 m 25
 0 10 l 25
 2 10 l 25
 2 8 l 25
 0 8 l 25
EndSplineSet
Refer: 71 44 N 1 0 0 1 0 0 2
EndChar

StartChar: period
Encoding: 46 46 84
Width: 2
VWidth: 0
Flags: HW
LayerCount: 2
Fore
SplineSet
0 0 m 25
 0 2 l 25
 2 2 l 25
 2 0 l 25
 0 0 l 25
EndSplineSet
EndChar

StartChar: equal
Encoding: 61 61 85
Width: 10
VWidth: 0
Flags: HW
LayerCount: 2
Fore
Refer: 253 8722 N 1 0 0 1 0 3 2
Refer: 253 8722 N 1 0 0 1 0 -3 2
EndChar

StartChar: plus
Encoding: 43 43 86
Width: 10
VWidth: 0
Flags: HW
LayerCount: 2
Fore
SplineSet
0 4 m 25
 0 6 l 25
 4 6 l 25
 4 10 l 25
 6 10 l 25
 6 6 l 25
 10 6 l 25
 10 4 l 25
 6 4 l 25
 6 0 l 25
 4 0 l 25
 4 4 l 25
 0 4 l 25
EndSplineSet
EndChar

StartChar: question
Encoding: 63 63 87
Width: 8
VWidth: 0
Flags: HW
LayerCount: 2
Fore
SplineSet
0 10 m 25
 0 12 l 18
 0 13 1 14 2 14 c 10
 6 14 l 18
 7 14 8 13 8 12 c 10
 8 8 l 18
 8 7 7 6 6 6 c 10
 5 6 l 25
 5 4 l 25
 3 4 l 25
 3 6 l 18
 3 7 4 8 5 8 c 2
 6 8 l 9
 6 12 l 25
 2 12 l 25
 2 10 l 25
 0 10 l 25
3 0 m 25
 3 2 l 25
 5 2 l 25
 5 0 l 25
 3 0 l 25
EndSplineSet
EndChar

StartChar: hyphen
Encoding: 45 45 88
Width: 6
VWidth: 0
Flags: HW
LayerCount: 2
Fore
SplineSet
0 4 m 25
 0 6 l 25
 6 6 l 25
 6 4 l 25
 0 4 l 25
EndSplineSet
EndChar

StartChar: quotedblbase
Encoding: 8222 8222 89
Width: 6
VWidth: 0
Flags: HW
LayerCount: 2
Fore
Refer: 72 8218 N 1 0 0 1 4 0 2
Refer: 72 8218 N 1 0 0 1 0 0 2
EndChar

StartChar: uni2010
Encoding: 8208 8208 90
Width: 6
VWidth: 0
Flags: HW
LayerCount: 2
Fore
Refer: 88 45 N 1 0 0 1 0 0 2
EndChar

StartChar: uni2011
Encoding: 8209 8209 91
Width: 6
VWidth: 0
Flags: HW
LayerCount: 2
Fore
Refer: 88 45 N 1 0 0 1 0 0 2
EndChar

StartChar: figuredash
Encoding: 8210 8210 92
Width: 10
VWidth: 0
Flags: HW
LayerCount: 2
Fore
SplineSet
0 4 m 25
 0 6 l 25
 10 6 l 25
 10 4 l 25
 0 4 l 25
EndSplineSet
EndChar

StartChar: endash
Encoding: 8211 8211 93
Width: 10
VWidth: 0
Flags: HW
LayerCount: 2
Fore
SplineSet
0 4 m 25
 0 6 l 25
 10 6 l 25
 10 4 l 25
 0 4 l 25
EndSplineSet
EndChar

StartChar: less
Encoding: 60 60 94
Width: 7
VWidth: 0
Flags: HW
LayerCount: 2
Fore
SplineSet
0 5 m 25
 5 10 l 25
 7 10 l 25
 2 5 l 25
 7 0 l 25
 5 0 l 25
 0 5 l 25
EndSplineSet
EndChar

StartChar: greater
Encoding: 62 62 95
Width: 7
VWidth: 0
Flags: HW
LayerCount: 2
Fore
Refer: 94 60 N -1 0 0 1 7 0 2
EndChar

StartChar: guillemotleft
Encoding: 171 171 96
Width: 11
VWidth: 0
Flags: HW
LayerCount: 2
Fore
Refer: 94 60 N 1 0 0 1 4 0 2
Refer: 94 60 N 1 0 0 1 0 0 2
EndChar

StartChar: guillemotright
Encoding: 187 187 97
Width: 11
VWidth: 0
Flags: HW
LayerCount: 2
Fore
Refer: 96 171 N -1 0 0 1 11 0 2
EndChar

StartChar: at
Encoding: 64 64 98
Width: 12
VWidth: 0
Flags: HW
LayerCount: 2
Fore
SplineSet
0 2 m 10
 0 10 l 18
 0 11 1 12 2 12 c 10
 10 12 l 18
 11 12 12 11 12 10 c 2
 12 5 l 2
 12 4 11 3 10 3 c 10
 5 3 l 18
 4 3 3 4 3 5 c 2
 3 7 l 2
 3 8 4 9 5 9 c 2
 9 9 l 1
 9 5 l 1
 10 5 l 1
 10 10 l 9
 2 10 l 25
 2 2 l 25
 10 2 l 17
 10 0 l 9
 2 0 l 18
 1 0 0 1 0 2 c 10
5 5 m 25
 7 5 l 25
 7 7 l 25
 5 7 l 25
 5 5 l 25
EndSplineSet
EndChar

StartChar: AE
Encoding: 198 198 99
Width: 14
VWidth: 0
Flags: HW
LayerCount: 2
Fore
Refer: 4 69 N 1 0 0 1 6 0 2
Refer: 0 65 N 1 0 0 1 0 0 2
EndChar

StartChar: OE
Encoding: 338 338 100
Width: 14
VWidth: 0
Flags: HW
LayerCount: 2
Fore
Refer: 4 69 N 1 0 0 1 6 0 2
Refer: 14 79 N 1 0 0 1 0 0 2
EndChar

StartChar: ae
Encoding: 230 230 101
Width: 14
VWidth: 0
Flags: HW
LayerCount: 2
Fore
Refer: 30 101 N 1 0 0 1 6 0 2
Refer: 26 97 N 1 0 0 1 0 0 2
EndChar

StartChar: oe
Encoding: 339 339 102
Width: 14
VWidth: 0
Flags: HW
LayerCount: 2
Fore
Refer: 30 101 N 1 0 0 1 6 0 2
Refer: 40 111 N 1 0 0 1 0 0 2
EndChar

StartChar: gravecomb
Encoding: 768 768 103
Width: 0
VWidth: 0
Flags: H
LayerCount: 2
Fore
SplineSet
1 14 m 25
 3 14 l 25
 5 12 l 25
 3 12 l 25
 1 14 l 25
EndSplineSet
EndChar

StartChar: agrave
Encoding: 224 224 104
Width: 8
VWidth: 0
Flags: HW
LayerCount: 2
Fore
Refer: 103 768 N 1 0 0 1 0 0 2
Refer: 26 97 N 1 0 0 1 0 0 2
EndChar

StartChar: acutecomb
Encoding: 769 769 105
Width: 0
VWidth: 0
Flags: H
LayerCount: 2
Fore
SplineSet
3 12 m 25
 5 14 l 25
 7 14 l 25
 5 12 l 25
 3 12 l 25
EndSplineSet
EndChar

StartChar: aacute
Encoding: 225 225 106
Width: 8
VWidth: 0
Flags: HW
LayerCount: 2
Fore
Refer: 105 769 N 1 0 0 1 0 0 2
Refer: 26 97 N 1 0 0 1 0 0 2
EndChar

StartChar: egrave
Encoding: 232 232 107
Width: 8
VWidth: 0
Flags: HW
LayerCount: 2
Fore
Refer: 103 768 N 1 0 0 1 0 0 2
Refer: 30 101 N 1 0 0 1 0 0 2
EndChar

StartChar: eacute
Encoding: 233 233 108
Width: 8
VWidth: 0
Flags: HW
LayerCount: 2
Fore
Refer: 105 769 N 1 0 0 1 0 0 2
Refer: 30 101 N 1 0 0 1 0 0 2
EndChar

StartChar: Agrave
Encoding: 192 192 109
Width: 8
VWidth: 0
Flags: HW
LayerCount: 2
Fore
Refer: 103 768 N 1 0 0 1 0 4 2
Refer: 0 65 N 1 0 0 1 0 0 2
EndChar

StartChar: Aacute
Encoding: 193 193 110
Width: 8
VWidth: 0
Flags: HW
LayerCount: 2
Fore
Refer: 105 769 N 1 0 0 1 0 4 2
Refer: 0 65 N 1 0 0 1 0 0 2
EndChar

StartChar: Egrave
Encoding: 200 200 111
Width: 8
VWidth: 0
Flags: HW
LayerCount: 2
Fore
Refer: 103 768 N 1 0 0 1 0 4 2
Refer: 4 69 N 1 0 0 1 0 0 2
EndChar

StartChar: Eacute
Encoding: 201 201 112
Width: 8
VWidth: 0
Flags: HW
LayerCount: 2
Fore
Refer: 105 769 N 1 0 0 1 0 4 2
Refer: 4 69 N 1 0 0 1 0 0 2
EndChar

StartChar: uni0302
Encoding: 770 770 113
Width: 0
VWidth: 0
Flags: HW
LayerCount: 2
Fore
SplineSet
1 12 m 1
 3 14 l 9
 5 14 l 17
 7 12 l 1
 5 12 l 1
 4 13 l 1
 3 12 l 1
 1 12 l 1
EndSplineSet
EndChar

StartChar: acircumflex
Encoding: 226 226 114
Width: 8
VWidth: 0
Flags: HW
LayerCount: 2
Fore
Refer: 113 770 N 1 0 0 1 0 0 2
Refer: 26 97 N 1 0 0 1 0 0 2
EndChar

StartChar: ecircumflex
Encoding: 234 234 115
Width: 8
VWidth: 0
Flags: HW
LayerCount: 2
Fore
Refer: 113 770 N 1 0 0 1 0 0 2
Refer: 30 101 N 1 0 0 1 0 0 2
EndChar

StartChar: Acircumflex
Encoding: 194 194 116
Width: 8
VWidth: 0
Flags: HW
LayerCount: 2
Fore
Refer: 113 770 N 1 0 0 1 0 4 2
Refer: 0 65 N 1 0 0 1 0 0 2
EndChar

StartChar: Ecircumflex
Encoding: 202 202 117
Width: 8
VWidth: 0
Flags: HW
LayerCount: 2
Fore
Refer: 113 770 N 1 0 0 1 0 4 2
Refer: 4 69 N 1 0 0 1 0 0 2
EndChar

StartChar: asterisk
Encoding: 42 42 118
Width: 8
VWidth: 0
Flags: HW
LayerCount: 2
Fore
SplineSet
0 4 m 25
 0 6 l 25
 2 6 l 25
 1 8 l 25
 3 9 l 25
 4 7 l 25
 5 9 l 25
 7 8 l 25
 6 6 l 25
 8 6 l 25
 8 4 l 25
 6 4 l 25
 7 2 l 25
 5 1 l 25
 4 3 l 25
 3 1 l 25
 1 2 l 25
 2 4 l 25
 0 4 l 25
EndSplineSet
EndChar

StartChar: slash
Encoding: 47 47 119
Width: 8
VWidth: 0
Flags: HW
LayerCount: 2
Fore
SplineSet
0 -2 m 25
 6 16 l 25
 8 16 l 25
 2 -2 l 25
 0 -2 l 25
EndSplineSet
EndChar

StartChar: backslash
Encoding: 92 92 120
Width: 8
VWidth: 0
Flags: HW
LayerCount: 2
Fore
Refer: 119 47 N 1 0 0 -1 0 14 2
EndChar

StartChar: tildecomb
Encoding: 771 771 121
Width: 0
VWidth: 0
Flags: H
LayerCount: 2
Fore
SplineSet
1 12 m 1
 1 13 2 14 3 14 c 0
 4 14 4 14 5 13 c 1
 6 14 6 14 7 14 c 1
 7 13 6 12 5 12 c 0
 4 12 4 12 3 13 c 1
 2 12 2 12 1 12 c 1
EndSplineSet
EndChar

StartChar: atilde
Encoding: 227 227 122
Width: 8
VWidth: 0
Flags: HW
LayerCount: 2
Fore
Refer: 121 771 N 1 0 0 1 0 0 2
Refer: 26 97 N 1 0 0 1 0 0 2
EndChar

StartChar: ntilde
Encoding: 241 241 123
Width: 8
VWidth: 0
Flags: HW
LayerCount: 2
Fore
Refer: 121 771 N 1 0 0 1 0 0 2
Refer: 39 110 N 1 0 0 1 0 0 2
EndChar

StartChar: ograve
Encoding: 242 242 124
Width: 8
VWidth: 0
Flags: HW
LayerCount: 2
Fore
Refer: 103 768 N 1 0 0 1 0 0 2
Refer: 40 111 N 1 0 0 1 0 0 2
EndChar

StartChar: oacute
Encoding: 243 243 125
Width: 8
VWidth: 0
Flags: HW
LayerCount: 2
Fore
Refer: 105 769 N 1 0 0 1 0 0 2
Refer: 40 111 N 1 0 0 1 0 0 2
EndChar

StartChar: ocircumflex
Encoding: 244 244 126
Width: 8
VWidth: 0
Flags: HW
LayerCount: 2
Fore
Refer: 113 770 N 1 0 0 1 0 0 2
Refer: 40 111 N 1 0 0 1 0 0 2
EndChar

StartChar: otilde
Encoding: 245 245 127
Width: 8
VWidth: 0
Flags: HW
LayerCount: 2
Fore
Refer: 121 771 N 1 0 0 1 0 0 2
Refer: 40 111 N 1 0 0 1 0 0 2
EndChar

StartChar: ugrave
Encoding: 249 249 128
Width: 8
VWidth: 0
Flags: HW
LayerCount: 2
Fore
Refer: 103 768 N 1 0 0 1 0 0 2
Refer: 46 117 N 1 0 0 1 0 0 2
EndChar

StartChar: uacute
Encoding: 250 250 129
Width: 8
VWidth: 0
Flags: HW
LayerCount: 2
Fore
Refer: 105 769 N 1 0 0 1 0 0 2
Refer: 46 117 N 1 0 0 1 0 0 2
EndChar

StartChar: ucircumflex
Encoding: 251 251 130
Width: 8
VWidth: 0
Flags: HW
LayerCount: 2
Fore
Refer: 113 770 N 1 0 0 1 0 0 2
Refer: 46 117 N 1 0 0 1 0 0 2
EndChar

StartChar: yacute
Encoding: 253 253 131
Width: 8
VWidth: 0
Flags: HW
LayerCount: 2
Fore
Refer: 105 769 N 1 0 0 1 0 0 2
Refer: 50 121 N 1 0 0 1 0 0 2
EndChar

StartChar: Atilde
Encoding: 195 195 132
Width: 8
VWidth: 0
Flags: HW
LayerCount: 2
Fore
Refer: 121 771 N 1 0 0 1 0 4 2
Refer: 0 65 N 1 0 0 1 0 0 2
EndChar

StartChar: Igrave
Encoding: 204 204 133
Width: 2
VWidth: 0
Flags: HW
LayerCount: 2
Fore
Refer: 103 768 N 1 0 0 1 -3 4 2
Refer: 8 73 N 1 0 0 1 0 0 2
EndChar

StartChar: Iacute
Encoding: 205 205 134
Width: 2
VWidth: 0
Flags: HW
LayerCount: 2
Fore
Refer: 105 769 N 1 0 0 1 -3 4 2
Refer: 8 73 N 1 0 0 1 0 0 2
EndChar

StartChar: Icircumflex
Encoding: 206 206 135
Width: 2
VWidth: 0
Flags: HW
LayerCount: 2
Fore
Refer: 113 770 N 1 0 0 1 -3 4 2
Refer: 8 73 N 1 0 0 1 0 0 2
EndChar

StartChar: Ograve
Encoding: 210 210 136
Width: 8
VWidth: 0
Flags: HW
LayerCount: 2
Fore
Refer: 103 768 N 1 0 0 1 0 4 2
Refer: 14 79 N 1 0 0 1 0 0 2
EndChar

StartChar: Oacute
Encoding: 211 211 137
Width: 8
VWidth: 0
Flags: HW
LayerCount: 2
Fore
Refer: 105 769 N 1 0 0 1 0 4 2
Refer: 14 79 N 1 0 0 1 0 0 2
EndChar

StartChar: Ocircumflex
Encoding: 212 212 138
Width: 8
VWidth: 0
Flags: HW
LayerCount: 2
Fore
Refer: 113 770 N 1 0 0 1 0 4 2
Refer: 14 79 N 1 0 0 1 0 0 2
EndChar

StartChar: Otilde
Encoding: 213 213 139
Width: 8
VWidth: 0
Flags: HW
LayerCount: 2
Fore
Refer: 121 771 N 1 0 0 1 0 4 2
Refer: 14 79 N 1 0 0 1 0 0 2
EndChar

StartChar: Ugrave
Encoding: 217 217 140
Width: 8
VWidth: 0
Flags: HW
LayerCount: 2
Fore
Refer: 103 768 N 1 0 0 1 0 4 2
Refer: 20 85 N 1 0 0 1 0 0 2
EndChar

StartChar: Uacute
Encoding: 218 218 141
Width: 8
VWidth: 0
Flags: HW
LayerCount: 2
Fore
Refer: 105 769 N 1 0 0 1 0 4 2
Refer: 20 85 N 1 0 0 1 0 0 2
EndChar

StartChar: Ucircumflex
Encoding: 219 219 142
Width: 8
VWidth: 0
Flags: HW
LayerCount: 2
Fore
Refer: 113 770 N 1 0 0 1 0 4 2
Refer: 20 85 N 1 0 0 1 0 0 2
EndChar

StartChar: Yacute
Encoding: 221 221 143
Width: 8
VWidth: 0
Flags: HW
LayerCount: 2
Fore
Refer: 105 769 N 1 0 0 1 0 4 2
Refer: 24 89 N 1 0 0 1 0 0 2
EndChar

StartChar: Ntilde
Encoding: 209 209 144
Width: 8
VWidth: 0
Flags: HW
LayerCount: 2
Fore
Refer: 121 771 N 1 0 0 1 0 4 2
Refer: 13 78 N 1 0 0 1 0 0 2
EndChar

StartChar: multiply
Encoding: 215 215 145
Width: 10
VWidth: 0
Flags: HW
LayerCount: 2
Fore
SplineSet
0 1 m 25
 4 5 l 25
 0 9 l 25
 1 10 l 25
 5 6 l 25
 9 10 l 25
 10 9 l 25
 6 5 l 25
 10 1 l 25
 9 0 l 25
 5 4 l 25
 1 0 l 25
 0 1 l 25
EndSplineSet
EndChar

StartChar: asciitilde
Encoding: 126 126 146
Width: 6
VWidth: 0
Flags: HW
LayerCount: 2
Fore
Refer: 121 771 N 1 0 0 1 -1 0 2
EndChar

StartChar: grave
Encoding: 96 96 147
Width: 4
VWidth: 0
Flags: HW
LayerCount: 2
Fore
Refer: 103 768 N 1 0 0 1 -1 0 2
EndChar

StartChar: asciicircum
Encoding: 94 94 148
Width: 6
VWidth: 0
Flags: HW
LayerCount: 2
Fore
Refer: 113 770 N 1 0 0 1 -1 0 2
EndChar

StartChar: acute
Encoding: 180 180 149
Width: 4
VWidth: 0
Flags: HW
LayerCount: 2
Fore
Refer: 105 769 N 1 0 0 1 -3 0 2
EndChar

StartChar: uni0327
Encoding: 807 807 150
Width: 0
VWidth: 0
Flags: H
LayerCount: 2
Fore
SplineSet
0 -2 m 25
 3 -2 l 25
 3 0 l 25
 5 0 l 17
 5 -2 l 2
 5 -3 4 -4 3 -4 c 10
 0 -4 l 25
 0 -2 l 25
EndSplineSet
EndChar

StartChar: Ccedilla
Encoding: 199 199 151
Width: 8
VWidth: 0
Flags: HW
LayerCount: 2
Fore
Refer: 150 807 N 1 0 0 1 0 0 2
Refer: 2 67 N 1 0 0 1 0 0 2
EndChar

StartChar: ccedilla
Encoding: 231 231 152
Width: 6
VWidth: 0
Flags: HW
LayerCount: 2
Fore
Refer: 150 807 N 1 0 0 1 0 0 2
Refer: 28 99 N 1 0 0 1 0 0 2
EndChar

StartChar: cedilla
Encoding: 184 184 153
Width: 5
VWidth: 0
Flags: HW
LayerCount: 2
Fore
Refer: 150 807 N 1 0 0 1 0 0 2
EndChar

StartChar: dotlessi
Encoding: 305 305 154
Width: 2
VWidth: 0
Flags: HW
LayerCount: 2
Fore
SplineSet
0 0 m 25
 0 10 l 25
 2 10 l 25
 2 0 l 25
 0 0 l 25
EndSplineSet
EndChar

StartChar: uni0307
Encoding: 775 775 155
Width: 0
VWidth: 0
Flags: HW
LayerCount: 2
Fore
SplineSet
3 12 m 25
 3 14 l 25
 5 14 l 25
 5 12 l 25
 3 12 l 25
EndSplineSet
EndChar

StartChar: adieresis
Encoding: 228 228 156
Width: 8
VWidth: 0
Flags: HW
LayerCount: 2
Fore
Refer: 158 776 N 1 0 0 1 0 0 2
Refer: 26 97 N 1 0 0 1 0 0 2
EndChar

StartChar: cdotaccent
Encoding: 267 267 157
Width: 6
VWidth: 0
Flags: HW
LayerCount: 2
Fore
Refer: 155 775 N 1 0 0 1 -1 0 2
Refer: 28 99 N 1 0 0 1 0 0 2
EndChar

StartChar: uni0308
Encoding: 776 776 158
Width: 0
VWidth: 0
Flags: HW
LayerCount: 2
Fore
Refer: 155 775 N 1 0 0 1 -2 0 2
Refer: 155 775 N 1 0 0 1 2 0 2
EndChar

StartChar: dieresis
Encoding: 168 168 159
Width: 6
VWidth: 0
Flags: HW
LayerCount: 2
Fore
Refer: 158 776 N 1 0 0 1 -1 0 2
EndChar

StartChar: igrave
Encoding: 236 236 160
Width: 2
VWidth: 0
Flags: HW
LayerCount: 2
Fore
Refer: 103 768 N 1 0 0 1 -3 0 2
Refer: 154 305 N 1 0 0 1 0 0 2
EndChar

StartChar: iacute
Encoding: 237 237 161
Width: 2
VWidth: 0
Flags: HW
LayerCount: 2
Fore
Refer: 105 769 N 1 0 0 1 -3 0 2
Refer: 154 305 N 1 0 0 1 0 0 2
EndChar

StartChar: icircumflex
Encoding: 238 238 162
Width: 2
VWidth: 0
Flags: HW
LayerCount: 2
Fore
Refer: 113 770 N 1 0 0 1 -3 0 2
Refer: 154 305 N 1 0 0 1 0 0 2
EndChar

StartChar: idieresis
Encoding: 239 239 163
Width: 2
VWidth: 0
Flags: HW
LayerCount: 2
Fore
Refer: 158 776 N 1 0 0 1 -3 0 2
Refer: 154 305 N 1 0 0 1 0 0 2
EndChar

StartChar: Idieresis
Encoding: 207 207 164
Width: 2
VWidth: 0
Flags: HW
LayerCount: 2
Fore
Refer: 158 776 N 1 0 0 1 -3 4 2
Refer: 8 73 N 1 0 0 1 0 0 2
EndChar

StartChar: Adieresis
Encoding: 196 196 165
Width: 8
VWidth: 0
Flags: HW
LayerCount: 2
Fore
Refer: 158 776 N 1 0 0 1 0 4 2
Refer: 0 65 N 1 0 0 1 0 0 2
EndChar

StartChar: Aring
Encoding: 197 197 166
Width: 8
VWidth: 0
Flags: HW
LayerCount: 2
Fore
Refer: 167 778 N 1 0 0 1 0 4 2
Refer: 0 65 N 1 0 0 1 0 0 2
EndChar

StartChar: uni030A
Encoding: 778 778 167
Width: 0
VWidth: 0
Flags: HW
LayerCount: 2
Fore
Refer: 155 775 N 1 0 0 1 0 0 2
EndChar

StartChar: aring
Encoding: 229 229 168
Width: 8
VWidth: 0
Flags: HW
LayerCount: 2
Fore
Refer: 167 778 N 1 0 0 1 0 0 2
Refer: 26 97 N 1 0 0 1 0 0 2
EndChar

StartChar: Edieresis
Encoding: 203 203 169
Width: 8
VWidth: 0
Flags: HW
LayerCount: 2
Fore
Refer: 158 776 N 1 0 0 1 0 4 2
Refer: 4 69 N 1 0 0 1 0 0 2
EndChar

StartChar: Odieresis
Encoding: 214 214 170
Width: 8
VWidth: 0
Flags: HW
LayerCount: 2
Fore
Refer: 158 776 N 1 0 0 1 0 4 2
Refer: 14 79 N 1 0 0 1 0 0 2
EndChar

StartChar: Udieresis
Encoding: 220 220 171
Width: 8
VWidth: 0
Flags: HW
LayerCount: 2
Fore
Refer: 158 776 N 1 0 0 1 0 4 2
Refer: 20 85 N 1 0 0 1 0 0 2
EndChar

StartChar: edieresis
Encoding: 235 235 172
Width: 8
VWidth: 0
Flags: HW
LayerCount: 2
Fore
Refer: 158 776 N 1 0 0 1 0 0 2
Refer: 30 101 N 1 0 0 1 0 0 2
EndChar

StartChar: odieresis
Encoding: 246 246 173
Width: 8
VWidth: 0
Flags: HW
LayerCount: 2
Fore
Refer: 158 776 N 1 0 0 1 0 0 2
Refer: 40 111 N 1 0 0 1 0 0 2
EndChar

StartChar: udieresis
Encoding: 252 252 174
Width: 8
VWidth: 0
Flags: HW
LayerCount: 2
Fore
Refer: 158 776 N 1 0 0 1 0 0 2
Refer: 46 117 N 1 0 0 1 0 0 2
EndChar

StartChar: ydieresis
Encoding: 255 255 175
Width: 8
VWidth: 0
Flags: HW
LayerCount: 2
Fore
Refer: 158 776 N 1 0 0 1 0 0 2
Refer: 50 121 N 1 0 0 1 0 0 2
EndChar

StartChar: Cdotaccent
Encoding: 266 266 176
Width: 8
VWidth: 0
Flags: HW
LayerCount: 2
Fore
Refer: 155 775 N 1 0 0 1 0 4 2
Refer: 2 67 N 1 0 0 1 0 0 2
EndChar

StartChar: Cacute
Encoding: 262 262 177
Width: 8
VWidth: 0
Flags: HW
LayerCount: 2
Fore
Refer: 105 769 N 1 0 0 1 0 4 2
Refer: 2 67 N 1 0 0 1 0 0 2
EndChar

StartChar: Ccircumflex
Encoding: 264 264 178
Width: 8
VWidth: 0
Flags: HW
LayerCount: 2
Fore
Refer: 113 770 N 1 0 0 1 0 4 2
Refer: 2 67 N 1 0 0 1 0 0 2
EndChar

StartChar: cacute
Encoding: 263 263 179
Width: 6
VWidth: 0
Flags: HW
LayerCount: 2
Fore
Refer: 105 769 N 1 0 0 1 -1 0 2
Refer: 28 99 N 1 0 0 1 0 0 2
EndChar

StartChar: ccircumflex
Encoding: 265 265 180
Width: 6
VWidth: 0
Flags: HW
LayerCount: 2
Fore
Refer: 113 770 N 1 0 0 1 -1 0 2
Refer: 28 99 N 1 0 0 1 0 0 2
EndChar

StartChar: Edotaccent
Encoding: 278 278 181
Width: 8
VWidth: 0
Flags: HW
LayerCount: 2
Fore
Refer: 155 775 N 1 0 0 1 0 4 2
Refer: 4 69 N 1 0 0 1 0 0 2
EndChar

StartChar: edotaccent
Encoding: 279 279 182
Width: 8
VWidth: 0
Flags: HW
LayerCount: 2
Fore
Refer: 155 775 N 1 0 0 1 0 0 2
Refer: 30 101 N 1 0 0 1 0 0 2
EndChar

StartChar: Gcircumflex
Encoding: 284 284 183
Width: 8
VWidth: 0
Flags: HW
LayerCount: 2
Fore
Refer: 113 770 N 1 0 0 1 0 4 2
Refer: 6 71 N 1 0 0 1 0 0 2
EndChar

StartChar: Gdotaccent
Encoding: 288 288 184
Width: 8
VWidth: 0
Flags: HW
LayerCount: 2
Fore
Refer: 155 775 N 1 0 0 1 0 4 2
Refer: 6 71 N 1 0 0 1 0 0 2
EndChar

StartChar: Gcommaaccent
Encoding: 290 290 185
Width: 8
VWidth: 0
Flags: HW
LayerCount: 2
Fore
Refer: 342 791 N 1 0 0 1 0 0 2
Refer: 6 71 N 1 0 0 1 0 0 2
EndChar

StartChar: gcircumflex
Encoding: 285 285 186
Width: 8
VWidth: 0
Flags: HW
LayerCount: 2
Fore
Refer: 113 770 N 1 0 0 1 0 0 2
Refer: 32 103 N 1 0 0 1 0 0 2
EndChar

StartChar: gdotaccent
Encoding: 289 289 187
Width: 8
VWidth: 0
Flags: HW
LayerCount: 2
Fore
Refer: 155 775 N 1 0 0 1 0 0 2
Refer: 32 103 N 1 0 0 1 0 0 2
EndChar

StartChar: Itilde
Encoding: 296 296 188
Width: 2
VWidth: 0
Flags: HW
LayerCount: 2
Fore
Refer: 121 771 N 1 0 0 1 -3 4 2
Refer: 8 73 N 1 0 0 1 0 0 2
EndChar

StartChar: itilde
Encoding: 297 297 189
Width: 2
VWidth: 0
Flags: HW
LayerCount: 2
Fore
Refer: 121 771 N 1 0 0 1 -3 0 2
Refer: 154 305 N 1 0 0 1 0 0 2
EndChar

StartChar: Idotaccent
Encoding: 304 304 190
Width: 2
VWidth: 0
Flags: HW
LayerCount: 2
Fore
Refer: 155 775 N 1 0 0 1 -3 4 2
Refer: 8 73 N 1 0 0 1 0 0 2
EndChar

StartChar: Jcircumflex
Encoding: 308 308 191
Width: 8
VWidth: 0
Flags: HW
LayerCount: 2
Fore
Refer: 113 770 N 1 0 0 1 3 4 2
Refer: 9 74 N 1 0 0 1 0 0 2
EndChar

StartChar: uni0237
Encoding: 567 567 192
Width: 2
VWidth: 0
Flags: HW
LayerCount: 2
Fore
SplineSet
-4 -2 m 25
 0 -2 l 25
 0 10 l 25
 2 10 l 25
 2 -2 l 18
 2 -3 1 -4 0 -4 c 10
 -4 -4 l 25
 -4 -2 l 25
EndSplineSet
EndChar

StartChar: jcircumflex
Encoding: 309 309 193
Width: 2
VWidth: 0
Flags: HW
LayerCount: 2
Fore
Refer: 113 770 N 1 0 0 1 -3 0 2
Refer: 192 567 N 1 0 0 1 0 0 2
EndChar

StartChar: divide
Encoding: 247 247 194
Width: 10
VWidth: 0
Flags: HW
LayerCount: 2
Fore
SplineSet
0 4 m 25
 0 6 l 25
 10 6 l 25
 10 4 l 25
 0 4 l 25
4 0 m 25
 4 2 l 25
 6 2 l 25
 6 0 l 25
 4 0 l 25
4 8 m 25
 4 10 l 25
 6 10 l 25
 6 8 l 25
 4 8 l 25
EndSplineSet
EndChar

StartChar: emdash
Encoding: 8212 8212 195
Width: 14
VWidth: 0
Flags: HW
LayerCount: 2
Fore
SplineSet
0 4 m 25
 0 6 l 25
 14 6 l 25
 14 4 l 25
 0 4 l 25
EndSplineSet
EndChar

StartChar: afii00208
Encoding: 8213 8213 196
Width: 14
VWidth: 0
Flags: HW
LayerCount: 2
Fore
SplineSet
0 4 m 25
 0 6 l 25
 14 6 l 25
 14 4 l 25
 0 4 l 25
EndSplineSet
EndChar

StartChar: uni00AD
Encoding: 173 173 197
Width: 6
VWidth: 0
Flags: HW
LayerCount: 2
Fore
Refer: 88 45 N 1 0 0 1 0 0 2
EndChar

StartChar: space
Encoding: 32 32 198
Width: 4
VWidth: 0
Flags: HW
LayerCount: 2
EndChar

StartChar: uni0304
Encoding: 772 772 199
Width: 0
VWidth: 0
Flags: HW
LayerCount: 2
Fore
SplineSet
1 12 m 25
 1 13 l 25
 7 13 l 25
 7 12 l 25
 1 12 l 25
EndSplineSet
EndChar

StartChar: Amacron
Encoding: 256 256 200
Width: 8
VWidth: 0
Flags: HW
LayerCount: 2
Fore
Refer: 199 772 N 1 0 0 1 0 4 2
Refer: 0 65 N 1 0 0 1 0 0 2
EndChar

StartChar: amacron
Encoding: 257 257 201
Width: 8
VWidth: 0
Flags: HW
LayerCount: 2
Fore
Refer: 199 772 N 1 0 0 1 0 0 2
Refer: 26 97 N 1 0 0 1 0 0 2
EndChar

StartChar: Emacron
Encoding: 274 274 202
Width: 8
VWidth: 0
Flags: HW
LayerCount: 2
Fore
Refer: 199 772 N 1 0 0 1 0 4 2
Refer: 4 69 N 1 0 0 1 0 0 2
EndChar

StartChar: emacron
Encoding: 275 275 203
Width: 8
VWidth: 0
Flags: HW
LayerCount: 2
Fore
Refer: 199 772 N 1 0 0 1 0 0 2
Refer: 30 101 N 1 0 0 1 0 0 2
EndChar

StartChar: Imacron
Encoding: 298 298 204
Width: 2
VWidth: 0
Flags: HW
LayerCount: 2
Fore
Refer: 199 772 N 1 0 0 1 -3 4 2
Refer: 8 73 N 1 0 0 1 0 0 2
EndChar

StartChar: imacron
Encoding: 299 299 205
Width: 2
VWidth: 0
Flags: HW
LayerCount: 2
Fore
Refer: 199 772 N 1 0 0 1 -3 0 2
Refer: 154 305 N 1 0 0 1 0 0 2
EndChar

StartChar: Lacute
Encoding: 313 313 206
Width: 6
VWidth: 0
Flags: HW
LayerCount: 2
Fore
Refer: 105 769 N 1 0 0 1 -3 4 2
Refer: 11 76 N 1 0 0 1 0 0 2
EndChar

StartChar: lacute
Encoding: 314 314 207
Width: 2
VWidth: 0
Flags: HW
LayerCount: 2
Fore
Refer: 105 769 N 1 0 0 1 -3 4 2
Refer: 37 108 N 1 0 0 1 0 0 2
EndChar

StartChar: Nacute
Encoding: 323 323 208
Width: 8
VWidth: 0
Flags: HW
LayerCount: 2
Fore
Refer: 105 769 N 1 0 0 1 0 4 2
Refer: 13 78 N 1 0 0 1 0 0 2
EndChar

StartChar: nacute
Encoding: 324 324 209
Width: 8
VWidth: 0
Flags: HW
LayerCount: 2
Fore
Refer: 105 769 N 1 0 0 1 0 0 2
Refer: 39 110 N 1 0 0 1 0 0 2
EndChar

StartChar: omacron
Encoding: 333 333 210
Width: 8
VWidth: 0
Flags: HW
LayerCount: 2
Fore
Refer: 199 772 N 1 0 0 1 0 0 2
Refer: 40 111 N 1 0 0 1 0 0 2
EndChar

StartChar: Omacron
Encoding: 332 332 211
Width: 8
VWidth: 0
Flags: HW
LayerCount: 2
Fore
Refer: 199 772 N 1 0 0 1 0 4 2
Refer: 14 79 N 1 0 0 1 0 0 2
EndChar

StartChar: Racute
Encoding: 340 340 212
Width: 8
VWidth: 0
Flags: HW
LayerCount: 2
Fore
Refer: 105 769 N 1 0 0 1 0 4 2
Refer: 17 82 N 1 0 0 1 0 0 2
EndChar

StartChar: racute
Encoding: 341 341 213
Width: 6
VWidth: 0
Flags: HW
LayerCount: 2
Fore
Refer: 105 769 N 1 0 0 1 -1 0 2
Refer: 43 114 N 1 0 0 1 0 0 2
EndChar

StartChar: sacute
Encoding: 347 347 214
Width: 8
VWidth: 0
Flags: HW
LayerCount: 2
Fore
Refer: 105 769 N 1 0 0 1 0 0 2
Refer: 44 115 N 1 0 0 1 0 0 2
EndChar

StartChar: scircumflex
Encoding: 349 349 215
Width: 8
VWidth: 0
Flags: HW
LayerCount: 2
Fore
Refer: 113 770 N 1 0 0 1 0 0 2
Refer: 44 115 N 1 0 0 1 0 0 2
EndChar

StartChar: Scircumflex
Encoding: 348 348 216
Width: 8
VWidth: 0
Flags: HW
LayerCount: 2
Fore
Refer: 113 770 N 1 0 0 1 0 4 2
Refer: 18 83 N 1 0 0 1 0 0 2
EndChar

StartChar: Sacute
Encoding: 346 346 217
Width: 8
VWidth: 0
Flags: HW
LayerCount: 2
Fore
Refer: 105 769 N 1 0 0 1 0 4 2
Refer: 18 83 N 1 0 0 1 0 0 2
EndChar

StartChar: scedilla
Encoding: 351 351 218
Width: 8
VWidth: 0
Flags: HW
LayerCount: 2
Fore
Refer: 150 807 N 1 0 0 1 0 0 2
Refer: 44 115 N 1 0 0 1 0 0 2
EndChar

StartChar: Scedilla
Encoding: 350 350 219
Width: 8
VWidth: 0
Flags: HW
LayerCount: 2
Fore
Refer: 150 807 N 1 0 0 1 0 0 2
Refer: 18 83 N 1 0 0 1 0 0 2
EndChar

StartChar: Utilde
Encoding: 360 360 220
Width: 8
VWidth: 0
Flags: HW
LayerCount: 2
Fore
Refer: 121 771 N 1 0 0 1 0 4 2
Refer: 20 85 N 1 0 0 1 0 0 2
EndChar

StartChar: Umacron
Encoding: 362 362 221
Width: 8
VWidth: 0
Flags: HW
LayerCount: 2
Fore
Refer: 199 772 N 1 0 0 1 0 4 2
Refer: 20 85 N 1 0 0 1 0 0 2
EndChar

StartChar: utilde
Encoding: 361 361 222
Width: 8
VWidth: 0
Flags: HW
LayerCount: 2
Fore
Refer: 121 771 N 1 0 0 1 0 0 2
Refer: 46 117 N 1 0 0 1 0 0 2
EndChar

StartChar: umacron
Encoding: 363 363 223
Width: 8
VWidth: 0
Flags: HW
LayerCount: 2
Fore
Refer: 199 772 N 1 0 0 1 0 0 2
Refer: 46 117 N 1 0 0 1 0 0 2
EndChar

StartChar: uring
Encoding: 367 367 224
Width: 8
VWidth: 0
Flags: HW
LayerCount: 2
Fore
Refer: 167 778 N 1 0 0 1 0 0 2
Refer: 46 117 N 1 0 0 1 0 0 2
EndChar

StartChar: Uring
Encoding: 366 366 225
Width: 8
VWidth: 0
Flags: HW
LayerCount: 2
Fore
Refer: 167 778 N 1 0 0 1 0 4 2
Refer: 20 85 N 1 0 0 1 0 0 2
EndChar

StartChar: Wcircumflex
Encoding: 372 372 226
Width: 12
VWidth: 0
Flags: HW
LayerCount: 2
Fore
Refer: 113 770 N 1 0 0 1 2 4 2
Refer: 22 87 N 1 0 0 1 0 0 2
EndChar

StartChar: wcircumflex
Encoding: 373 373 227
Width: 12
VWidth: 0
Flags: HW
LayerCount: 2
Fore
Refer: 113 770 N 1 0 0 1 2 0 2
Refer: 48 119 N 1 0 0 1 0 0 2
EndChar

StartChar: Ycircumflex
Encoding: 374 374 228
Width: 8
VWidth: 0
Flags: HW
LayerCount: 2
Fore
Refer: 113 770 N 1 0 0 1 0 4 2
Refer: 24 89 N 1 0 0 1 0 0 2
EndChar

StartChar: Ydieresis
Encoding: 376 376 229
Width: 8
VWidth: 0
Flags: HW
LayerCount: 2
Fore
Refer: 158 776 N 1 0 0 1 0 4 2
Refer: 24 89 N 1 0 0 1 0 0 2
EndChar

StartChar: ycircumflex
Encoding: 375 375 230
Width: 8
VWidth: 0
Flags: HW
LayerCount: 2
Fore
Refer: 113 770 N 1 0 0 1 0 0 2
Refer: 50 121 N 1 0 0 1 0 0 2
EndChar

StartChar: Zacute
Encoding: 377 377 231
Width: 8
VWidth: 0
Flags: HW
LayerCount: 2
Fore
Refer: 105 769 N 1 0 0 1 0 4 2
Refer: 25 90 N 1 0 0 1 0 0 2
EndChar

StartChar: Zdotaccent
Encoding: 379 379 232
Width: 8
VWidth: 0
Flags: HW
LayerCount: 2
Fore
Refer: 167 778 N 1 0 0 1 0 4 2
Refer: 25 90 N 1 0 0 1 0 0 2
EndChar

StartChar: zacute
Encoding: 378 378 233
Width: 8
VWidth: 0
Flags: HW
LayerCount: 2
Fore
Refer: 105 769 N 1 0 0 1 0 0 2
Refer: 51 122 N 1 0 0 1 0 0 2
EndChar

StartChar: zdotaccent
Encoding: 380 380 234
Width: 8
VWidth: 0
Flags: HW
LayerCount: 2
Fore
Refer: 167 778 N 1 0 0 1 0 0 2
Refer: 51 122 N 1 0 0 1 0 0 2
EndChar

StartChar: macron
Encoding: 175 175 235
Width: 6
VWidth: 0
Flags: HW
LayerCount: 2
Fore
Refer: 199 772 N 1 0 0 1 -1 0 2
EndChar

StartChar: exclamdown
Encoding: 161 161 236
Width: 2
VWidth: 0
Flags: HW
LayerCount: 2
Fore
Refer: 63 33 N 1 0 0 -1 0 14 2
EndChar

StartChar: questiondown
Encoding: 191 191 237
Width: 8
VWidth: 0
Flags: HW
LayerCount: 2
Fore
Refer: 87 63 N -1 0 0 -1 8 14 2
EndChar

StartChar: percent
Encoding: 37 37 238
Width: 12
VWidth: 0
Flags: HW
LayerCount: 2
Fore
SplineSet
0 0 m 25
 2 0 l 25
 12 14 l 25
 10 14 l 25
 0 0 l 25
EndSplineSet
Refer: 239 176 N 1 0 0 1 6 -8 2
Refer: 239 176 N 1 0 0 1 0 0 2
EndChar

StartChar: degree
Encoding: 176 176 239
Width: 6
VWidth: 0
Flags: HW
LayerCount: 2
Fore
SplineSet
4 10 m 25
 2 10 l 25
 2 12 l 25
 4 12 l 25
 4 10 l 25
4 8 m 2
 5 8 6 9 6 10 c 2
 6 12 l 2
 6 13 5 14 4 14 c 2
 2 14 l 2
 1 14 0 13 0 12 c 2
 0 10 l 2
 0 9 1 8 2 8 c 2
 4 8 l 2
EndSplineSet
EndChar

StartChar: trademark
Encoding: 8482 8482 240
Width: 18
VWidth: 0
Flags: HW
LayerCount: 2
Fore
SplineSet
8 8 m 9
 8 14 l 17
 16 14 l 2
 17 14 18 13 18 12 c 10
 18 8 l 25
 16 8 l 25
 16 12 l 25
 14 12 l 25
 14 8 l 25
 12 8 l 25
 12 12 l 25
 10 12 l 17
 10 8 l 1
 8 8 l 9
0 14 m 25
 6 14 l 25
 6 12 l 25
 4 12 l 25
 4 8 l 25
 2 8 l 25
 2 12 l 25
 0 12 l 25
 0 14 l 25
EndSplineSet
EndChar

StartChar: copyright
Encoding: 169 169 241
Width: 10
VWidth: 0
Flags: HW
LayerCount: 2
Fore
SplineSet
4 12 m 25
 8 12 l 17
 8 13 7 14 6 14 c 2
 4 14 l 2
 3 14 2 13 2 12 c 10
 2 10 l 18
 2 9 3 8 4 8 c 2
 6 8 l 2
 7 8 8 9 8 10 c 9
 4 10 l 25
 4 12 l 25
3 15 m 10
 7 15 l 18
 8 15 9 14 9 13 c 2
 9 9 l 2
 9 8 8 7 7 7 c 10
 3 7 l 18
 2 7 1 8 1 9 c 2
 1 13 l 2
 1 14 2 15 3 15 c 10
0 13 m 10
 0 9 l 18
 0 7 2 6 3 6 c 2
 7 6 l 2
 8 6 10 7 10 9 c 10
 10 13 l 18
 10 15 8 16 7 16 c 2
 3 16 l 2
 2 16 0 15 0 13 c 10
EndSplineSet
EndChar

StartChar: registered
Encoding: 174 174 242
Width: 10
VWidth: 0
Flags: HW
LayerCount: 2
Fore
SplineSet
0 13 m 10
 0 9 l 18
 0 7 2 6 3 6 c 2
 7 6 l 2
 8 6 10 7 10 9 c 10
 10 13 l 18
 10 15 8 16 7 16 c 2
 3 16 l 2
 2 16 0 15 0 13 c 10
3 15 m 2
 7 15 l 2
 8 15 9 14 9 13 c 2
 9 9 l 2
 9 8 8 7 7 7 c 2
 3 7 l 2
 2 7 1 8 1 9 c 2
 1 13 l 2
 1 14 2 15 3 15 c 2
2 8 m 1
 4 8 l 1
 4 10 l 1
 5 10 6 9 6 8 c 9
 8 8 l 17
 8 9 7 10 6 10 c 1
 7 10 8 11 8 12 c 0
 8 13 7 14 6 14 c 2
 2 14 l 1
 2 8 l 1
4 13 m 17
 5 13 6 13 6 12 c 0
 6 11 5 11 4 11 c 9
 4 13 l 17
EndSplineSet
EndChar

StartChar: ampersand
Encoding: 38 38 243
Width: 10
VWidth: 0
Flags: HW
LayerCount: 2
Fore
SplineSet
10 0 m 25
 10 2 l 25
 8 2 l 25
 8 6 l 25
 10 6 l 25
 10 8 l 25
 8 8 l 25
 8 10 l 25
 6 10 l 25
 6 8 l 25
 4 8 l 18
 3 8 2 8 2 9 c 2
 2 11 l 2
 2 12 3 12 4 12 c 10
 6 12 l 25
 6 14 l 25
 3 14 l 18
 1 14 0 13 0 11 c 10
 0 9 l 18
 0 8 1 7 2 7 c 1
 1 7 0 6 0 5 c 10
 0 3 l 18
 0 1 1 0 3 0 c 10
 10 0 l 25
6 2 m 25
 4 2 l 18
 3 2 2 2 2 3 c 2
 2 5 l 2
 2 6 3 6 4 6 c 10
 6 6 l 25
 6 2 l 25
EndSplineSet
EndChar

StartChar: uni2117
Encoding: 8471 8471 244
Width: 10
VWidth: 0
Flags: HW
LayerCount: 2
Fore
SplineSet
0 13 m 10
 0 9 l 18
 0 7 2 6 3 6 c 2
 7 6 l 2
 8 6 10 7 10 9 c 10
 10 13 l 18
 10 15 8 16 7 16 c 2
 3 16 l 2
 2 16 0 15 0 13 c 10
3 15 m 2
 7 15 l 2
 8 15 9 14 9 13 c 2
 9 9 l 2
 9 8 8 7 7 7 c 2
 3 7 l 2
 2 7 1 8 1 9 c 2
 1 13 l 2
 1 14 2 15 3 15 c 2
2 8 m 1
 4 8 l 1
 4 10 l 1
 6 10 l 2
 7 10 8 11 8 12 c 0
 8 13 7 14 6 14 c 2
 2 14 l 1
 2 8 l 1
4 13 m 17
 5 13 6 13 6 12 c 0
 6 11 5 11 4 11 c 9
 4 13 l 17
EndSplineSet
EndChar

StartChar: uni2120
Encoding: 8480 8480 245
Width: 18
VWidth: 0
Flags: HW
LayerCount: 2
Fore
SplineSet
0 10 m 1
 0 9 l 2
 0 8 1 8 2 8 c 10
 4 8 l 18
 5 8 6 8 6 9 c 2
 6 11 l 2
 6 12 5 12 4 12 c 10
 2 12 l 25
 2 13 l 25
 6 13 l 17
 6 14 5 14 4 14 c 10
 2 14 l 18
 1 14 0 14 0 13 c 2
 0 12 l 2
 0 11 1 11 2 11 c 10
 4 11 l 25
 4 10 l 17
 0 10 l 1
8 8 m 9
 8 14 l 17
 16 14 l 2
 17 14 18 13 18 12 c 10
 18 8 l 25
 16 8 l 25
 16 12 l 25
 14 12 l 25
 14 8 l 25
 12 8 l 25
 12 12 l 25
 10 12 l 17
 10 8 l 1
 8 8 l 9
EndSplineSet
EndChar

StartChar: germandbls
Encoding: 223 223 246
Width: 8
VWidth: 0
Flags: HW
LayerCount: 2
Fore
SplineSet
0 0 m 9
 2 0 l 25
 2 11 l 18
 2 12 3 12 4 12 c 0
 5 12 6 12 6 11 c 0
 6 10 5 10 4 10 c 9
 4 8 l 17
 5 8 6 8 6 7 c 10
 6 3 l 18
 6 2 5 2 4 2 c 9
 4 0 l 25
 5 0 l 18
 7 0 8 1 8 3 c 2
 8 7 l 2
 8 8 7 9 6 9 c 1
 7 9 8 10 8 11 c 0
 8 13 7 14 5 14 c 10
 3 14 l 18
 1 14 0 13 0 11 c 2
 0 0 l 9
EndSplineSet
EndChar

StartChar: numbersign
Encoding: 35 35 247
Width: 10
VWidth: 0
Flags: HW
LayerCount: 2
Fore
SplineSet
4 6 m 25
 4 8 l 25
 6 8 l 25
 6 6 l 25
 4 6 l 25
2 0 m 25
 4 0 l 25
 4 4 l 25
 6 4 l 25
 6 0 l 25
 8 0 l 25
 8 4 l 25
 10 4 l 25
 10 6 l 25
 8 6 l 25
 8 8 l 25
 10 8 l 25
 10 10 l 25
 8 10 l 25
 8 14 l 25
 6 14 l 25
 6 10 l 25
 4 10 l 25
 4 14 l 25
 2 14 l 25
 2 10 l 25
 0 10 l 25
 0 8 l 25
 2 8 l 25
 2 6 l 25
 0 6 l 25
 0 4 l 25
 2 4 l 25
 2 0 l 25
EndSplineSet
EndChar

StartChar: underscore
Encoding: 95 95 248
Width: 8
VWidth: 0
Flags: HW
LayerCount: 2
Fore
SplineSet
0 -4 m 25
 8 -4 l 25
 8 -2 l 25
 0 -2 l 25
 0 -4 l 25
EndSplineSet
EndChar

StartChar: ordfeminine
Encoding: 170 170 249
Width: 6
VWidth: 0
Flags: HW
LayerCount: 2
Fore
SplineSet
2 10 m 25
 2 12 l 25
 4 12 l 25
 4 10 l 25
 2 10 l 25
2 8 m 10
 6 8 l 25
 6 14 l 25
 2 14 l 18
 1 14 0 13 0 12 c 10
 0 10 l 18
 0 9 1 8 2 8 c 10
EndSplineSet
EndChar

StartChar: ordmasculine
Encoding: 186 186 250
Width: 6
VWidth: 0
Flags: HW
LayerCount: 2
Fore
Refer: 239 176 N 1 0 0 1 0 0 2
EndChar

StartChar: periodcentered
Encoding: 183 183 251
Width: 2
VWidth: 0
Flags: HW
LayerCount: 2
Fore
Refer: 84 46 N 1 0 0 1 0 4 2
EndChar

StartChar: brokenbar
Encoding: 166 166 252
Width: 2
VWidth: 0
Flags: HW
LayerCount: 2
Fore
SplineSet
0 8 m 25
 2 8 l 25
 2 16 l 25
 0 16 l 25
 0 8 l 25
0 -2 m 25
 2 -2 l 25
 2 6 l 25
 0 6 l 25
 0 -2 l 25
EndSplineSet
EndChar

StartChar: minus
Encoding: 8722 8722 253
Width: 10
VWidth: 0
Flags: HW
LayerCount: 2
Fore
Refer: 92 8210 N 1 0 0 1 0 0 2
EndChar

StartChar: uni2213
Encoding: 8723 8723 254
Width: 10
VWidth: 0
Flags: HW
LayerCount: 2
Fore
Refer: 255 177 N 1 0 0 -1 0 10 2
EndChar

StartChar: plusminus
Encoding: 177 177 255
Width: 10
VWidth: 0
Flags: HW
LayerCount: 2
Fore
SplineSet
0 6 m 25
 4 6 l 25
 4 4 l 25
 6 4 l 25
 6 6 l 25
 10 6 l 25
 10 8 l 25
 6 8 l 25
 6 10 l 25
 4 10 l 25
 4 8 l 25
 0 8 l 25
 0 6 l 25
EndSplineSet
Refer: 253 8722 N 1 0 0 1 0 -4 2
EndChar

StartChar: uni0306
Encoding: 774 774 256
Width: 0
VWidth: 0
Flags: HW
LayerCount: 2
Fore
Refer: 257 780 N 1 0 0 1 0 0 2
EndChar

StartChar: uni030C
Encoding: 780 780 257
Width: 0
VWidth: 0
Flags: HW
LayerCount: 2
Fore
Refer: 113 770 N 1 0 0 -1 0 26 2
EndChar

StartChar: Abreve
Encoding: 258 258 258
Width: 8
VWidth: 0
Flags: HW
LayerCount: 2
Fore
Refer: 0 65 N 1 0 0 1 0 0 2
Refer: 256 774 N 1 0 0 1 0 4 2
EndChar

StartChar: abreve
Encoding: 259 259 259
Width: 8
VWidth: 0
Flags: HW
LayerCount: 2
Fore
Refer: 26 97 N 1 0 0 1 0 0 2
Refer: 256 774 N 1 0 0 1 0 0 2
EndChar

StartChar: Ebreve
Encoding: 276 276 260
Width: 8
VWidth: 0
Flags: HW
LayerCount: 2
Fore
Refer: 4 69 N 1 0 0 1 0 0 2
Refer: 256 774 N 1 0 0 1 0 4 2
EndChar

StartChar: ebreve
Encoding: 277 277 261
Width: 8
VWidth: 0
Flags: HW
LayerCount: 2
Fore
Refer: 30 101 N 1 0 0 1 0 0 2
Refer: 256 774 N 1 0 0 1 0 0 2
EndChar

StartChar: Ibreve
Encoding: 300 300 262
Width: 2
VWidth: 0
Flags: HW
LayerCount: 2
Fore
Refer: 8 73 N 1 0 0 1 0 0 2
Refer: 256 774 N 1 0 0 1 -3 4 2
EndChar

StartChar: ibreve
Encoding: 301 301 263
Width: 2
VWidth: 0
Flags: HW
LayerCount: 2
Fore
Refer: 154 305 N 1 0 0 1 0 0 2
Refer: 256 774 N 1 0 0 1 -3 0 2
EndChar

StartChar: Obreve
Encoding: 334 334 264
Width: 8
VWidth: 0
Flags: HW
LayerCount: 2
Fore
Refer: 14 79 N 1 0 0 1 0 0 2
Refer: 256 774 N 1 0 0 1 0 4 2
EndChar

StartChar: obreve
Encoding: 335 335 265
Width: 8
VWidth: 0
Flags: HW
LayerCount: 2
Fore
Refer: 40 111 N 1 0 0 1 0 0 2
Refer: 256 774 N 1 0 0 1 0 0 2
EndChar

StartChar: Ubreve
Encoding: 364 364 266
Width: 8
VWidth: 0
Flags: HW
LayerCount: 2
Fore
Refer: 20 85 N 1 0 0 1 0 0 2
Refer: 256 774 N 1 0 0 1 0 4 2
EndChar

StartChar: ubreve
Encoding: 365 365 267
Width: 8
VWidth: 0
Flags: HW
LayerCount: 2
Fore
Refer: 46 117 N 1 0 0 1 0 0 2
Refer: 256 774 N 1 0 0 1 0 0 2
EndChar

StartChar: Hcircumflex
Encoding: 292 292 268
Width: 8
VWidth: 0
Flags: HW
LayerCount: 2
Fore
Refer: 7 72 N 1 0 0 1 0 0 2
Refer: 113 770 N 1 0 0 1 0 4 2
EndChar

StartChar: hcircumflex
Encoding: 293 293 269
Width: 8
VWidth: 0
Flags: HW
LayerCount: 2
Fore
Refer: 33 104 N 1 0 0 1 0 0 2
Refer: 113 770 N 1 0 0 1 0 4 2
EndChar

StartChar: Zcaron
Encoding: 381 381 270
Width: 8
VWidth: 0
Flags: HW
LayerCount: 2
Fore
Refer: 25 90 N 1 0 0 1 0 0 2
Refer: 257 780 N 1 0 0 1 0 4 2
EndChar

StartChar: zcaron
Encoding: 382 382 271
Width: 8
VWidth: 0
Flags: HW
LayerCount: 2
Fore
Refer: 51 122 N 1 0 0 1 0 0 2
Refer: 257 780 N 1 0 0 1 0 0 2
EndChar

StartChar: Ccaron
Encoding: 268 268 272
Width: 8
VWidth: 0
Flags: HW
LayerCount: 2
Fore
Refer: 2 67 N 1 0 0 1 0 0 2
Refer: 257 780 N 1 0 0 1 0 4 2
EndChar

StartChar: ccaron
Encoding: 269 269 273
Width: 6
VWidth: 0
Flags: HW
LayerCount: 2
Fore
Refer: 28 99 N 1 0 0 1 0 0 2
Refer: 257 780 N 1 0 0 1 -1 0 2
EndChar

StartChar: Dcaron
Encoding: 270 270 274
Width: 8
VWidth: 0
Flags: HW
LayerCount: 2
Fore
Refer: 3 68 N 1 0 0 1 0 0 2
Refer: 257 780 N 1 0 0 1 0 4 2
EndChar

StartChar: Ecaron
Encoding: 282 282 275
Width: 8
VWidth: 0
Flags: HW
LayerCount: 2
Fore
Refer: 4 69 N 1 0 0 1 0 0 2
Refer: 257 780 N 1 0 0 1 0 4 2
EndChar

StartChar: ecaron
Encoding: 283 283 276
Width: 8
VWidth: 0
Flags: HW
LayerCount: 2
Fore
Refer: 30 101 N 1 0 0 1 0 0 2
Refer: 257 780 N 1 0 0 1 0 0 2
EndChar

StartChar: Ncaron
Encoding: 327 327 277
Width: 8
VWidth: 0
Flags: HW
LayerCount: 2
Fore
Refer: 13 78 N 1 0 0 1 0 0 2
Refer: 257 780 N 1 0 0 1 0 4 2
EndChar

StartChar: ncaron
Encoding: 328 328 278
Width: 8
VWidth: 0
Flags: HW
LayerCount: 2
Fore
Refer: 39 110 N 1 0 0 1 0 0 2
Refer: 257 780 N 1 0 0 1 0 0 2
EndChar

StartChar: Rcaron
Encoding: 344 344 279
Width: 8
VWidth: 0
Flags: HW
LayerCount: 2
Fore
Refer: 17 82 N 1 0 0 1 0 0 2
Refer: 257 780 N 1 0 0 1 0 4 2
EndChar

StartChar: rcaron
Encoding: 345 345 280
Width: 6
VWidth: 0
Flags: HW
LayerCount: 2
Fore
Refer: 43 114 N 1 0 0 1 0 0 2
Refer: 257 780 N 1 0 0 1 -1 0 2
EndChar

StartChar: Scaron
Encoding: 352 352 281
Width: 8
VWidth: 0
Flags: HW
LayerCount: 2
Fore
Refer: 18 83 N 1 0 0 1 0 0 2
Refer: 257 780 N 1 0 0 1 0 4 2
EndChar

StartChar: scaron
Encoding: 353 353 282
Width: 8
VWidth: 0
Flags: HW
LayerCount: 2
Fore
Refer: 44 115 N 1 0 0 1 0 0 2
Refer: 257 780 N 1 0 0 1 0 0 2
EndChar

StartChar: Gbreve
Encoding: 286 286 283
Width: 8
VWidth: 0
Flags: HW
LayerCount: 2
Fore
Refer: 6 71 N 1 0 0 1 0 0 2
Refer: 256 774 N 1 0 0 1 0 4 2
EndChar

StartChar: gbreve
Encoding: 287 287 284
Width: 8
VWidth: 0
Flags: HW
LayerCount: 2
Fore
Refer: 32 103 N 1 0 0 1 0 0 2
Refer: 256 774 N 1 0 0 1 0 0 2
EndChar

StartChar: Eng
Encoding: 330 330 285
Width: 8
VWidth: 0
Flags: HW
LayerCount: 2
Fore
Refer: 150 807 N 1 0 0 1 3 0 2
Refer: 13 78 N 1 0 0 1 0 0 2
EndChar

StartChar: eng
Encoding: 331 331 286
Width: 8
VWidth: 0
Flags: HW
LayerCount: 2
Fore
Refer: 150 807 N 1 0 0 1 3 0 2
Refer: 39 110 N 1 0 0 1 0 0 2
EndChar

StartChar: Lcaron
Encoding: 317 317 287
Width: 6
VWidth: 0
Flags: HW
LayerCount: 2
Fore
Refer: 64 8217 N 1 0 0 1 4 0 2
Refer: 11 76 N 1 0 0 1 0 0 2
EndChar

StartChar: lcaron
Encoding: 318 318 288
Width: 6
VWidth: 0
Flags: HW
LayerCount: 2
Fore
Refer: 64 8217 N 1 0 0 1 4 0 2
Refer: 37 108 N 1 0 0 1 0 0 2
EndChar

StartChar: dcaron
Encoding: 271 271 289
Width: 12
VWidth: 0
Flags: HW
LayerCount: 2
Fore
Refer: 64 8217 N 1 0 0 1 10 0 2
Refer: 29 100 N 1 0 0 1 0 0 2
EndChar

StartChar: uni030B
Encoding: 779 779 290
Width: 0
VWidth: 0
Flags: HW
LayerCount: 2
Fore
Refer: 105 769 N 1 0 0 1 -2 0 2
Refer: 105 769 N 1 0 0 1 2 0 2
EndChar

StartChar: Ohungarumlaut
Encoding: 336 336 291
Width: 8
VWidth: 0
Flags: HW
LayerCount: 2
Fore
Refer: 290 779 N 1 0 0 1 0 4 2
Refer: 14 79 N 1 0 0 1 0 0 2
EndChar

StartChar: ohungarumlaut
Encoding: 337 337 292
Width: 8
VWidth: 0
Flags: HW
LayerCount: 2
Fore
Refer: 290 779 N 1 0 0 1 0 0 2
Refer: 40 111 N 1 0 0 1 0 0 2
EndChar

StartChar: Uhungarumlaut
Encoding: 368 368 293
Width: 8
VWidth: 0
Flags: HW
LayerCount: 2
Fore
Refer: 290 779 N 1 0 0 1 0 4 2
Refer: 20 85 N 1 0 0 1 0 0 2
EndChar

StartChar: uhungarumlaut
Encoding: 369 369 294
Width: 8
VWidth: 0
Flags: HW
LayerCount: 2
Fore
Refer: 290 779 N 1 0 0 1 0 0 2
Refer: 46 117 N 1 0 0 1 0 0 2
EndChar

StartChar: Ldot
Encoding: 319 319 295
Width: 6
VWidth: 0
Flags: HW
LayerCount: 2
Fore
Refer: 251 183 N 1 0 0 1 4 2 2
Refer: 11 76 N 1 0 0 1 0 0 2
EndChar

StartChar: ldot
Encoding: 320 320 296
Width: 6
VWidth: 0
Flags: HW
LayerCount: 2
Fore
Refer: 251 183 N 1 0 0 1 4 2 2
Refer: 37 108 N 1 0 0 1 0 0 2
EndChar

StartChar: longs
Encoding: 383 383 297
Width: 6
VWidth: 0
Flags: HW
LayerCount: 2
Fore
SplineSet
0 0 m 25
 2 0 l 25
 2 12 l 17
 6 12 l 25
 6 14 l 25
 2 14 l 18
 1 14 0 13 0 12 c 10
 0 0 l 25
EndSplineSet
EndChar

StartChar: ij
Encoding: 307 307 298
Width: 6
VWidth: 0
Flags: HW
LayerCount: 2
Fore
Refer: 35 106 N 1 0 0 1 4 0 2
Refer: 34 105 N 1 0 0 1 0 0 2
EndChar

StartChar: IJ
Encoding: 306 306 299
Width: 12
VWidth: 0
Flags: HW
LayerCount: 2
Fore
Refer: 9 74 N 1 0 0 1 4 0 2
Refer: 8 73 N 1 0 0 1 0 0 2
EndChar

StartChar: uni00B9
Encoding: 185 185 300
Width: 4
VWidth: 0
Flags: HW
LayerCount: 2
Fore
SplineSet
0 14 m 25
 0 12 l 25
 2 12 l 25
 2 8 l 25
 4 8 l 25
 4 12 l 18
 4 13 3 14 2 14 c 10
 0 14 l 25
EndSplineSet
EndChar

StartChar: uni00B2
Encoding: 178 178 301
Width: 6
VWidth: 0
Flags: HW
LayerCount: 2
Fore
SplineSet
0 13 m 17
 0 14 1 14 2 14 c 10
 4 14 l 18
 5 14 6 14 6 13 c 10
 6 12 l 18
 6 11 5 11 4 11 c 10
 2 11 l 25
 2 10 l 25
 6 10 l 25
 6 8 l 25
 0 8 l 25
 0 11 l 18
 0 12 1 12 2 12 c 10
 4 12 l 25
 4 13 l 25
 0 13 l 17
EndSplineSet
EndChar

StartChar: uni00B3
Encoding: 179 179 302
Width: 6
VWidth: 0
Flags: HW
LayerCount: 2
Fore
SplineSet
0 13 m 17
 0 14 1 14 2 14 c 10
 4 14 l 18
 5 14 6 14 6 13 c 2
 6 9 l 2
 6 8 5 8 4 8 c 10
 2 8 l 18
 1 8 0 8 0 9 c 10
 0 10 l 25
 4 10 l 25
 4 11 l 25
 2 11 l 17
 2 12 l 1
 4 12 l 9
 4 13 l 25
 0 13 l 17
EndSplineSet
EndChar

StartChar: uni2070
Encoding: 8304 8304 303
Width: 6
VWidth: 0
Flags: HW
LayerCount: 2
Fore
Refer: 239 176 N 1 0 0 1 0 0 2
EndChar

StartChar: uni2074
Encoding: 8308 8308 304
Width: 6
VWidth: 0
Flags: HW
LayerCount: 2
Fore
SplineSet
0 14 m 25
 0 12 l 18
 0 11 1 10 2 10 c 10
 4 10 l 25
 4 8 l 25
 6 8 l 25
 6 14 l 25
 4 14 l 25
 4 12 l 25
 2 12 l 25
 2 14 l 25
 0 14 l 25
EndSplineSet
EndChar

StartChar: onequarter
Encoding: 188 188 305
Width: 12
VWidth: 0
Flags: HW
LayerCount: 2
Fore
Refer: 326 8324 N 1 0 0 1 6 0 2
Refer: 308 8260 N 1 0 0 1 1 0 2
Refer: 300 185 N 1 0 0 1 0 0 2
EndChar

StartChar: onehalf
Encoding: 189 189 306
Width: 12
VWidth: 0
Flags: HW
LayerCount: 2
Fore
Refer: 324 8322 N 1 0 0 1 6 0 2
Refer: 308 8260 N 1 0 0 1 1 0 2
Refer: 300 185 N 1 0 0 1 0 0 2
EndChar

StartChar: threequarters
Encoding: 190 190 307
Width: 14
VWidth: 0
Flags: HW
LayerCount: 2
Fore
Refer: 326 8324 N 1 0 0 1 8 0 2
Refer: 308 8260 N 1 0 0 1 3 0 2
Refer: 302 179 N 1 0 0 1 0 0 2
EndChar

StartChar: fraction
Encoding: 8260 8260 308
Width: 8
VWidth: 0
Flags: HW
LayerCount: 2
Fore
SplineSet
0 5 m 25
 2 5 l 25
 8 9 l 25
 6 9 l 25
 0 5 l 25
EndSplineSet
EndChar

StartChar: uni0328
Encoding: 808 808 309
Width: 0
VWidth: 0
Flags: HW
LayerCount: 2
Fore
Refer: 150 807 N -1 0 0 1 8 0 2
EndChar

StartChar: Aogonek
Encoding: 260 260 310
Width: 8
VWidth: 0
Flags: HW
LayerCount: 2
Fore
Refer: 309 808 N 1 0 0 1 3 0 2
Refer: 0 65 N 1 0 0 1 0 0 2
EndChar

StartChar: aogonek
Encoding: 261 261 311
Width: 8
VWidth: 0
Flags: HW
LayerCount: 2
Fore
Refer: 309 808 N 1 0 0 1 0 0 2
Refer: 26 97 N 1 0 0 1 0 0 2
EndChar

StartChar: Eogonek
Encoding: 280 280 312
Width: 8
VWidth: 0
Flags: HW
LayerCount: 2
Fore
Refer: 309 808 N 1 0 0 1 0 0 2
Refer: 4 69 N 1 0 0 1 0 0 2
EndChar

StartChar: eogonek
Encoding: 281 281 313
Width: 8
VWidth: 0
Flags: HW
LayerCount: 2
Fore
Refer: 309 808 N 1 0 0 1 0 0 2
Refer: 30 101 N 1 0 0 1 0 0 2
EndChar

StartChar: Uogonek
Encoding: 370 370 314
Width: 8
VWidth: 0
Flags: HW
LayerCount: 2
Fore
Refer: 309 808 N 1 0 0 1 0 0 2
Refer: 20 85 N 1 0 0 1 0 0 2
EndChar

StartChar: uogonek
Encoding: 371 371 315
Width: 8
VWidth: 0
Flags: HW
LayerCount: 2
Fore
Refer: 309 808 N 1 0 0 1 0 0 2
Refer: 46 117 N 1 0 0 1 0 0 2
EndChar

StartChar: Iogonek
Encoding: 302 302 316
Width: 2
VWidth: 0
Flags: HW
LayerCount: 2
Fore
Refer: 309 808 N 1 0 0 1 -3 0 2
Refer: 8 73 N 1 0 0 1 0 0 2
EndChar

StartChar: iogonek
Encoding: 303 303 317
Width: 2
VWidth: 0
Flags: HW
LayerCount: 2
Fore
Refer: 309 808 N 1 0 0 1 -3 0 2
Refer: 34 105 N 1 0 0 1 0 0 2
EndChar

StartChar: Tcommaaccent
Encoding: 354 354 318
Width: 8
VWidth: 0
Flags: HW
LayerCount: 2
Fore
Refer: 150 807 N 1 0 0 1 0 0 2
Refer: 19 84 N 1 0 0 1 0 0 2
EndChar

StartChar: tcommaaccent
Encoding: 355 355 319
Width: 6
VWidth: 0
Flags: HW
LayerCount: 2
Fore
Refer: 150 807 N 1 0 0 1 0 0 2
Refer: 45 116 N 1 0 0 1 0 0 2
EndChar

StartChar: Tcaron
Encoding: 356 356 320
Width: 8
VWidth: 0
Flags: HW
LayerCount: 2
Fore
Refer: 257 780 N 1 0 0 1 0 4 2
Refer: 19 84 N 1 0 0 1 0 0 2
EndChar

StartChar: tcaron
Encoding: 357 357 321
Width: 6
VWidth: 0
Flags: HW
LayerCount: 2
Fore
Refer: 64 8217 N 1 0 0 1 4 4 2
Refer: 45 116 N 1 0 0 1 0 0 2
EndChar

StartChar: Thorn
Encoding: 222 222 322
Width: 8
VWidth: 0
Flags: HW
LayerCount: 2
Fore
SplineSet
2 4 m 25
 2 10 l 25
 6 10 l 25
 6 4 l 25
 2 4 l 25
0 0 m 25
 2 0 l 25
 2 2 l 25
 6 2 l 18
 7 2 8 3 8 4 c 10
 8 10 l 18
 8 11 7 12 6 12 c 10
 2 12 l 25
 2 14 l 25
 0 14 l 25
 0 0 l 25
EndSplineSet
EndChar

StartChar: thorn
Encoding: 254 254 323
Width: 8
VWidth: 0
Flags: HW
LayerCount: 2
Fore
SplineSet
2 2 m 25
 2 8 l 25
 6 8 l 25
 6 2 l 25
 2 2 l 25
0 -4 m 25
 2 -4 l 25
 2 0 l 25
 6 0 l 18
 7 0 8 1 8 2 c 10
 8 8 l 18
 8 9 7 10 6 10 c 10
 2 10 l 25
 2 14 l 25
 0 14 l 25
 0 -4 l 25
EndSplineSet
EndChar

StartChar: uni2082
Encoding: 8322 8322 324
Width: 6
VWidth: 0
Flags: HW
LayerCount: 2
Fore
Refer: 301 178 N 1 0 0 1 0 -8 2
EndChar

StartChar: uni2080
Encoding: 8320 8320 325
Width: 6
VWidth: 0
Flags: HW
LayerCount: 2
Fore
Refer: 303 8304 N 1 0 0 1 0 -8 2
EndChar

StartChar: uni2084
Encoding: 8324 8324 326
Width: 6
VWidth: 0
Flags: HW
LayerCount: 2
Fore
Refer: 304 8308 N 1 0 0 1 0 -8 2
EndChar

StartChar: uni2081
Encoding: 8321 8321 327
Width: 4
VWidth: 0
Flags: HW
LayerCount: 2
Fore
Refer: 300 185 N 1 0 0 1 0 -8 2
EndChar

StartChar: uni2083
Encoding: 8323 8323 328
Width: 6
VWidth: 0
Flags: HW
LayerCount: 2
Fore
Refer: 302 179 N 1 0 0 1 0 -8 2
EndChar

StartChar: Eth
Encoding: 208 208 329
Width: 8
VWidth: 0
Flags: HW
LayerCount: 2
Fore
SplineSet
0 0 m 17
 0 6 l 1
 -2 6 l 1
 -2 8 l 1
 0 8 l 1
 0 14 l 9
 5 14 l 18
 7 14 8 13 8 11 c 10
 8 3 l 18
 8 1 7 0 5 0 c 10
 0 0 l 17
2 2 m 1
 4 2 l 2
 5 2 6 2 6 3 c 10
 6 11 l 18
 6 12 5 12 4 12 c 2
 2 12 l 1
 2 8 l 1
 4 8 l 1
 4 6 l 1
 2 6 l 1
 2 2 l 1
EndSplineSet
EndChar

StartChar: Dcroat
Encoding: 272 272 330
Width: 8
VWidth: 0
Flags: HW
LayerCount: 2
Fore
Refer: 329 208 N 1 0 0 1 0 0 2
EndChar

StartChar: logicalnot
Encoding: 172 172 331
Width: 10
VWidth: 0
Flags: HW
LayerCount: 2
Fore
SplineSet
0 4 m 25
 8 4 l 25
 8 0 l 25
 10 0 l 25
 10 6 l 25
 0 6 l 25
 0 4 l 25
EndSplineSet
EndChar

StartChar: uni00B5
Encoding: 181 181 332
Width: 8
VWidth: 0
Flags: HW
LayerCount: 2
Fore
SplineSet
0 -4 m 25
 2 -4 l 25
 2 0 l 25
 6 0 l 18
 7 0 8 1 8 2 c 10
 8 10 l 25
 6 10 l 25
 6 2 l 25
 2 2 l 25
 2 10 l 25
 0 10 l 25
 0 -4 l 25
EndSplineSet
EndChar

StartChar: paragraph
Encoding: 182 182 333
Width: 8
VWidth: 0
Flags: HW
LayerCount: 2
Fore
SplineSet
4 0 m 25
 6 0 l 17
 6 12 l 1
 7 12 l 1
 7 0 l 1
 8 0 l 1
 8 14 l 1
 2 14 l 2
 1 14 0 13 0 12 c 10
 0 8 l 18
 0 7 1 6 2 6 c 10
 4 6 l 25
 4 0 l 25
EndSplineSet
EndChar

StartChar: section
Encoding: 167 167 334
Width: 8
VWidth: 0
Flags: HW
LayerCount: 2
Fore
SplineSet
2 6 m 25
 2 8 l 25
 6 8 l 25
 6 6 l 25
 2 6 l 25
0 0 m 25
 6 0 l 18
 7 0 8 1 8 2 c 10
 8 3 l 18
 8 4 8 5 7 5 c 1
 8 5 8 6 8 7 c 10
 8 8 l 18
 8 9 7 10 6 10 c 10
 2 10 l 25
 2 12 l 25
 8 12 l 25
 8 14 l 25
 2 14 l 18
 1 14 0 13 0 12 c 10
 0 11 l 18
 0 10 0 9 1 9 c 1
 0 9 0 8 0 7 c 10
 0 6 l 18
 0 5 1 4 2 4 c 10
 6 4 l 25
 6 2 l 25
 0 2 l 25
 0 0 l 25
EndSplineSet
EndChar

StartChar: currency
Encoding: 164 164 335
Width: 8
VWidth: 0
Flags: HW
LayerCount: 2
Fore
SplineSet
3 4 m 25
 3 6 l 25
 5 6 l 25
 5 4 l 25
 3 4 l 25
0 3 m 25
 2 1 l 25
 3 2 l 25
 5 2 l 25
 6 1 l 25
 8 3 l 25
 7 4 l 25
 7 6 l 25
 8 7 l 25
 6 9 l 25
 5 8 l 25
 3 8 l 25
 2 9 l 25
 0 7 l 25
 1 6 l 25
 1 4 l 25
 0 3 l 25
EndSplineSet
EndChar

StartChar: kgreenlandic
Encoding: 312 312 336
Width: 8
VWidth: 0
Flags: HW
LayerCount: 2
Fore
SplineSet
0 0 m 25
 0 10 l 25
 2 10 l 25
 2 6 l 17
 4 6 l 2
 5 6 6 6 6 7 c 2
 6 10 l 9
 8 10 l 17
 8 7 l 2
 8 6 7 5 6 5 c 1
 7 5 8 4 8 3 c 2
 8 0 l 9
 6 0 l 17
 6 3 l 2
 6 4 5 4 4 4 c 2
 2 4 l 9
 2 0 l 25
 0 0 l 25
EndSplineSet
EndChar

StartChar: Kcommaaccent
Encoding: 310 310 337
Width: 8
VWidth: 0
Flags: HW
LayerCount: 2
Fore
Refer: 342 791 N 1 0 0 1 0 0 2
Refer: 10 75 N 1 0 0 1 0 0 2
EndChar

StartChar: kcommaaccent
Encoding: 311 311 338
Width: 8
VWidth: 0
Flags: HW
LayerCount: 2
Fore
Refer: 342 791 N 1 0 0 1 0 0 2
Refer: 36 107 N 1 0 0 1 0 0 2
EndChar

StartChar: Ncommaaccent
Encoding: 325 325 339
Width: 8
VWidth: 0
Flags: HW
LayerCount: 2
Fore
Refer: 342 791 N 1 0 0 1 0 0 2
Refer: 13 78 N 1 0 0 1 0 0 2
EndChar

StartChar: ncommaaccent
Encoding: 326 326 340
Width: 8
VWidth: 0
Flags: HW
LayerCount: 2
Fore
Refer: 342 791 N 1 0 0 1 0 0 2
Refer: 39 110 N 1 0 0 1 0 0 2
EndChar

StartChar: Rcommaaccent
Encoding: 342 342 341
Width: 8
VWidth: 0
Flags: HW
LayerCount: 2
Fore
Refer: 342 791 N 1 0 0 1 0 0 2
Refer: 17 82 N 1 0 0 1 0 0 2
EndChar

StartChar: uni0317
Encoding: 791 791 342
Width: 0
VWidth: 0
Flags: HW
LayerCount: 2
Fore
Refer: 105 769 N 1 0 0 1 -2 -16 2
EndChar

StartChar: rcommaaccent
Encoding: 343 343 343
Width: 6
VWidth: 0
Flags: HW
LayerCount: 2
Fore
Refer: 342 791 N 1 0 0 1 -3 0 2
Refer: 43 114 N 1 0 0 1 0 0 2
EndChar

StartChar: gcommaaccent
Encoding: 291 291 344
Width: 8
VWidth: 0
Flags: HW
LayerCount: 2
Fore
Refer: 105 769 N 1 0 0 1 0 0 2
Refer: 32 103 N 1 0 0 1 0 0 2
EndChar

StartChar: Lcommaaccent
Encoding: 315 315 345
Width: 6
VWidth: 0
Flags: HW
LayerCount: 2
Fore
Refer: 342 791 N 1 0 0 1 0 0 2
Refer: 11 76 N 1 0 0 1 0 0 2
EndChar

StartChar: lcommaaccent
Encoding: 316 316 346
Width: 2
VWidth: 0
Flags: HW
LayerCount: 2
Fore
Refer: 342 791 N 1 0 0 1 -3 0 2
Refer: 37 108 N 1 0 0 1 0 0 2
EndChar

StartChar: Tbar
Encoding: 358 358 347
Width: 8
VWidth: 0
Flags: HW
LayerCount: 2
Fore
SplineSet
0 12 m 25
 0 14 l 25
 8 14 l 25
 8 12 l 25
 5 12 l 17
 5 8 l 1
 7 8 l 1
 7 6 l 1
 5 6 l 1
 5 0 l 9
 3 0 l 17
 3 6 l 1
 1 6 l 1
 1 8 l 1
 3 8 l 1
 3 12 l 9
 0 12 l 25
EndSplineSet
EndChar

StartChar: tbar
Encoding: 359 359 348
Width: 8
VWidth: 0
Flags: HW
LayerCount: 2
Fore
SplineSet
2 2 m 2
 2 4 l 1
 0 4 l 1
 0 6 l 1
 2 6 l 1
 2 14 l 9
 4 14 l 25
 4 10 l 25
 8 10 l 25
 8 8 l 25
 4 8 l 17
 4 6 l 1
 6 6 l 1
 6 4 l 1
 4 4 l 1
 4 2 l 9
 8 2 l 25
 8 0 l 25
 4 0 l 18
 3 0 2 1 2 2 c 2
EndSplineSet
EndChar

StartChar: Oslash
Encoding: 216 216 349
Width: 8
VWidth: 0
Flags: HW
LayerCount: 2
Fore
SplineSet
2 2 m 25
 6 2 l 25
 6 8 l 25
 2 4 l 25
 2 2 l 25
0 2 m 2
 0 12 l 2
 0 13 1 14 2 14 c 10
 6 14 l 18
 7 14 8 13 8 12 c 2
 8 2 l 2
 8 1 7 0 6 0 c 10
 2 0 l 18
 1 0 0 1 0 2 c 2
6 12 m 25
 2 12 l 25
 2 6 l 25
 6 10 l 25
 6 12 l 25
EndSplineSet
EndChar

StartChar: oslash
Encoding: 248 248 350
Width: 8
VWidth: 0
Flags: HW
LayerCount: 2
Fore
SplineSet
6 2 m 25
 6 6 l 25
 2 2 l 25
 6 2 l 25
0 2 m 10
 0 8 l 18
 0 9 1 10 2 10 c 10
 6 10 l 18
 7 10 8 9 8 8 c 10
 8 2 l 18
 8 1 7 0 6 0 c 10
 2 0 l 18
 1 0 0 1 0 2 c 10
2 8 m 25
 2 4 l 25
 6 8 l 25
 2 8 l 25
EndSplineSet
EndChar

StartChar: Lslash
Encoding: 321 321 351
Width: 6
VWidth: 0
Flags: HW
LayerCount: 2
Fore
SplineSet
0 0 m 17
 0 5 l 1
 -2 3 l 1
 -2 5 l 1
 0 7 l 1
 0 14 l 9
 2 14 l 17
 2 9 l 1
 4 11 l 1
 4 9 l 1
 2 7 l 1
 2 2 l 9
 6 2 l 25
 6 0 l 25
 0 0 l 17
EndSplineSet
EndChar

StartChar: lslash
Encoding: 322 322 352
Width: 2
VWidth: 0
Flags: HW
LayerCount: 2
Fore
SplineSet
0 0 m 25
 2 0 l 25
 2 7 l 25
 4 9 l 25
 4 11 l 25
 2 9 l 25
 2 14 l 25
 0 14 l 25
 0 7 l 25
 -2 5 l 25
 -2 3 l 25
 0 5 l 25
 0 0 l 25
EndSplineSet
EndChar

StartChar: bullet
Encoding: 8226 8226 353
Width: 4
VWidth: 0
Flags: HW
LayerCount: 2
Fore
SplineSet
0 3 m 25
 0 7 l 25
 4 7 l 25
 4 3 l 25
 0 3 l 25
EndSplineSet
EndChar
EndChars
EndSplineFont
