<svg viewBox="5 5 90 70">
	<filter id="glowing">
		<feGaussianBlur in="SourceGraphic" stdDeviation=".5" result="blurred"/>
		<feMerge>
			<feMergeNode in="blurred"/>
			<feMergeNode in="SourceGraphic"/>
		</feMerge>
	</filter>
	<g opacity=".1">
		<path fill="#F60" d="M 05.2,5.2 V 44.8 H 44.8 V 5.2 Z"/>
		<path fill="#0F0" d="M 45.2,5.2 V 74.8 H 54.8 V 44.8 H 74.8 V 5.2 Z"/>
		<path fill="#06F" d="M 75.2,5.2 V 44.8 H 94.8 V 5.2 Z"/>
	</g>
	<g fill="none" stroke-linecap="round" stroke-linejoin="round" stroke-width="1" filter="url(#glowing)">
		<path stroke="#F60" d="
			M 10,10 V 30
			M 20,10 V 20
			M 40,10 V 40 H 45.5
			M 40,15 H 30 V 30
			"/>
		<path stroke="#0F0" d="
			M 60,10 V 40
			M 60,15 H 50 V 20
			M 60,25 H 50 V 70
			M 70,10 V 30
			"/>
		<path stroke="#06F" d="
			M 80,10 V 35 H 90
			M 90,10 V 40
			"/>
	</g>
</svg>
